#     t[s], instTraveltime[s], instTravelTimeEMA[s], meanSpeed[km/h], cumulatedTravelTime[h], numberVehicles 
      0.20,     180.00,       0.90,     100.00,     0.0500,        0 
      0.40,     180.00,       1.79,     100.00,     0.1000,        0 
      0.60,     180.00,       2.68,     100.00,     0.1500,        0 
      0.80,     180.00,       3.56,     100.00,     0.2000,        0 
      1.00,     180.00,       4.44,     100.00,     0.2500,        0 
      1.20,     180.00,       5.32,     100.00,     0.3000,        0 
      1.40,     180.00,       6.19,     100.00,     0.3500,        0 
      1.60,     180.00,       7.06,     100.00,     0.4000,        0 
      1.80,     180.00,       7.92,     100.00,     0.4500,        0 
      2.00,     180.00,       8.78,     100.00,     0.5000,        0 
      2.20,     180.00,       9.63,     100.00,     0.5500,        0 
      2.40,     180.00,      10.48,     100.00,     0.6000,        0 
      2.60,     180.00,      11.33,     100.00,     0.6500,        0 
      2.80,     180.00,      12.17,     100.00,     0.7000,        0 
      3.00,     180.00,      13.01,     100.00,     0.7500,        0 
      3.20,     180.00,      13.84,     100.00,     0.8000,        0 
      3.40,     180.00,      14.67,     100.00,     0.8500,        0 
      3.60,     180.00,      15.49,     100.00,     0.9000,        0 
      3.80,     180.00,      16.31,     100.00,     0.9500,        0 
      4.00,     180.00,      17.13,     100.00,     1.0000,        0 
      4.20,     180.00,      17.94,     100.00,     1.0500,        0 
      4.40,     180.00,      18.75,     100.00,     1.1000,        0 
      4.60,     180.00,      19.55,     100.00,     1.1500,        0 
      4.80,     180.00,      20.35,     100.00,     1.2000,        0 
      5.00,     180.00,      21.15,     100.00,     1.2500,        0 
      5.20,     180.00,      21.94,     100.00,     1.3000,        0 
      5.40,     180.00,      22.73,     100.00,     1.3500,        0 
      5.60,     180.00,      23.52,     100.00,     1.4000,        0 
      5.80,     180.00,      24.30,     100.00,     1.4500,        0 
      6.00,     180.00,      25.07,     100.00,     1.5000,        0 
      6.20,     180.00,      25.85,     100.00,     1.5500,        0 
      6.40,     180.00,      26.61,     100.00,     1.6000,        0 
      6.60,     180.00,      27.38,     100.00,     1.6500,        0 
      6.80,     180.00,      28.14,     100.00,     1.7000,        0 
      7.00,     180.00,      28.90,     100.00,     1.7500,        0 
      7.20,     180.00,      29.65,     100.00,     1.8000,        0 
      7.40,     180.00,      30.40,     100.00,     1.8500,        0 
      7.60,     180.00,      31.15,     100.00,     1.9000,        0 
      7.80,     180.00,      31.89,     100.00,     1.9500,        0 
      8.00,     180.00,      32.63,     100.00,     2.0000,        0 
      8.20,     180.00,      33.36,     100.00,     2.0500,        0 
      8.40,     180.00,      34.09,     100.00,     2.1000,        0 
      8.60,     180.00,      34.82,     100.00,     2.1500,        0 
      8.80,     180.00,      35.55,     100.00,     2.2000,        0 
      9.00,     180.00,      36.27,     100.00,     2.2500,        0 
      9.20,     180.00,      36.98,     100.00,     2.3000,        0 
      9.40,     180.00,      37.70,     100.00,     2.3500,        0 
      9.60,     180.00,      38.41,     100.00,     2.4000,        0 
      9.80,     180.00,      39.11,     100.00,     2.4500,        0 
     10.00,     180.00,      39.82,     100.00,     2.5000,        0 
     10.20,     180.00,      40.52,     100.00,     2.5500,        0 
     10.40,     180.00,      41.21,     100.00,     2.6000,        0 
     10.60,     180.00,      41.90,     100.00,     2.6500,        0 
     10.80,     180.00,      42.59,     100.00,     2.7000,        0 
     11.00,     180.00,      43.28,     100.00,     2.7500,        0 
     11.20,     180.00,      43.96,     100.00,     2.8000,        0 
     11.40,     180.00,      44.64,     100.00,     2.8500,        0 
     11.60,     180.00,      45.31,     100.00,     2.9000,        0 
     11.80,     180.00,      45.98,     100.00,     2.9500,        0 
     12.00,     180.00,      46.65,     100.00,     3.0000,        0 
     12.20,     180.00,      47.32,     100.00,     3.0500,        0 
     12.40,     180.00,      47.98,     100.00,     3.1000,        0 
     12.60,     180.00,      48.64,     100.00,     3.1500,        0 
     12.80,     180.00,      49.29,     100.00,     3.2000,        0 
     13.00,     180.00,      49.95,     100.00,     3.2500,        0 
     13.20,     180.00,      50.59,     100.00,     3.3000,        0 
     13.40,     180.00,      51.24,     100.00,     3.3500,        0 
     13.60,     180.00,      51.88,     100.00,     3.4000,        0 
     13.80,     180.00,      52.52,     100.00,     3.4500,        0 
     14.00,     180.00,      53.16,     100.00,     3.5000,        0 
     14.20,     180.00,      53.79,     100.00,     3.5500,        0 
     14.40,     180.00,      54.42,     100.00,     3.6000,        0 
     14.60,     180.00,      55.04,     100.00,     3.6500,        0 
     14.80,     180.00,      55.67,     100.00,     3.7000,        0 
     15.00,     180.00,      56.29,     100.00,     3.7500,        0 
     15.20,     180.00,      56.90,     100.00,     3.8000,        0 
     15.40,     180.00,      57.52,     100.00,     3.8500,        0 
     15.60,     180.00,      58.13,     100.00,     3.9000,        0 
     15.80,     180.00,      58.74,     100.00,     3.9500,        0 
     16.00,     180.00,      59.34,     100.00,     4.0000,        0 
     16.20,     180.00,      59.94,     100.00,     4.0500,        0 
     16.40,     180.00,      60.54,     100.00,     4.1000,        0 
     16.60,     180.00,      61.14,     100.00,     4.1500,        0 
     16.80,     180.00,      61.73,     100.00,     4.2000,        0 
     17.00,     180.00,      62.32,     100.00,     4.2500,        0 
     17.20,     180.00,      62.91,     100.00,     4.3000,        0 
     17.40,     180.00,      63.49,     100.00,     4.3500,        0 
     17.60,     180.00,      64.07,     100.00,     4.4000,        0 
     17.80,     180.00,      64.65,     100.00,     4.4500,        0 
     18.00,     180.00,      65.23,     100.00,     4.5000,        0 
     18.20,     180.00,      65.80,     100.00,     4.5500,        0 
     18.40,     180.00,      66.37,     100.00,     4.6000,        0 
     18.60,     180.00,      66.94,     100.00,     4.6500,        0 
     18.80,     180.00,      67.50,     100.00,     4.7000,        0 
     19.00,     180.00,      68.06,     100.00,     4.7500,        0 
     19.20,     180.00,      68.62,     100.00,     4.8000,        0 
     19.40,     180.00,      69.17,     100.00,     4.8500,        0 
     19.60,     180.00,      69.73,     100.00,     4.9000,        0 
     19.80,     180.00,      70.28,     100.00,     4.9500,        0 
     20.00,     180.00,      70.82,     100.00,     5.0000,        0 
     20.20,     180.00,      71.37,     100.00,     5.0500,        0 
     20.40,     180.00,      71.91,     100.00,     5.1000,        0 
     20.60,     180.00,      72.45,     100.00,     5.1500,        0 
     20.80,     180.00,      72.99,     100.00,     5.2000,        0 
     21.00,     180.00,      73.52,     100.00,     5.2500,        0 
     21.20,     180.00,      74.05,     100.00,     5.3000,        0 
     21.40,     180.00,      74.58,     100.00,     5.3500,        0 
     21.60,     180.00,      75.11,     100.00,     5.4000,        0 
     21.80,     180.00,      75.63,     100.00,     5.4500,        0 
     22.00,     180.00,      76.15,     100.00,     5.5000,        0 
     22.20,     180.00,      76.67,     100.00,     5.5500,        0 
     22.40,     180.00,      77.18,     100.00,     5.6000,        0 
     22.60,     180.00,      77.70,     100.00,     5.6500,        0 
     22.80,     180.00,      78.21,     100.00,     5.7000,        0 
     23.00,     180.00,      78.71,     100.00,     5.7500,        0 
     23.20,     180.00,      79.22,     100.00,     5.8000,        0 
     23.40,     180.00,      79.72,     100.00,     5.8500,        0 
     23.60,     180.00,      80.22,     100.00,     5.9000,        0 
     23.80,     180.00,      80.72,     100.00,     5.9500,        0 
     24.00,     180.00,      81.21,     100.00,     6.0000,        0 
     24.20,     180.00,      81.71,     100.00,     6.0500,        0 
     24.40,     180.00,      82.20,     100.00,     6.1000,        0 
     24.60,     180.00,      82.68,     100.00,     6.1500,        0 
     24.80,     180.00,      83.17,     100.00,     6.2000,        0 
     25.00,     180.00,      83.65,     100.00,     6.2500,        0 
     25.20,     180.00,      84.13,     100.00,     6.3000,        0 
     25.40,     180.00,      84.61,     100.00,     6.3500,        0 
     25.60,     180.00,      85.09,     100.00,     6.4000,        0 
     25.80,     180.00,      85.56,     100.00,     6.4500,        0 
     26.00,     180.00,      86.03,     100.00,     6.5000,        0 
     26.20,     180.00,      86.50,     100.00,     6.5500,        0 
     26.40,     180.00,      86.97,     100.00,     6.6000,        0 
     26.60,     180.00,      87.43,     100.00,     6.6500,        0 
     26.80,     180.00,      87.89,     100.00,     6.7000,        0 
     27.00,     180.00,      88.35,     100.00,     6.7500,        0 
     27.20,     180.00,      88.81,     100.00,     6.8000,        0 
     27.40,     180.00,      89.26,     100.00,     6.8500,        0 
     27.60,     180.00,      89.72,     100.00,     6.9000,        0 
     27.80,     180.00,      90.17,     100.00,     6.9500,        0 
     28.00,     180.00,      90.61,     100.00,     7.0000,        0 
     28.20,     180.00,      91.06,     100.00,     7.0500,        0 
     28.40,     180.00,      91.50,     100.00,     7.1000,        0 
     28.60,     180.00,      91.95,     100.00,     7.1500,        0 
     28.80,     180.00,      92.38,     100.00,     7.2000,        0 
     29.00,     180.00,      92.82,     100.00,     7.2500,        0 
     29.20,     180.00,      93.26,     100.00,     7.3000,        0 
     29.40,     180.00,      93.69,     100.00,     7.3500,        0 
     29.60,     180.00,      94.12,     100.00,     7.4000,        0 
     29.80,     180.00,      94.55,     100.00,     7.4500,        0 
     30.00,     180.00,      94.97,     100.00,     7.5000,        0 
     30.20,     180.00,      95.40,     100.00,     7.5500,        0 
     30.40,     180.00,      95.82,     100.00,     7.6000,        0 
     30.60,     180.00,      96.24,     100.00,     7.6500,        0 
     30.80,     180.00,      96.66,     100.00,     7.7000,        0 
     31.00,     180.00,      97.07,     100.00,     7.7500,        0 
     31.20,     180.00,      97.49,     100.00,     7.8000,        0 
     31.40,     180.00,      97.90,     100.00,     7.8500,        0 
     31.60,     180.00,      98.31,     100.00,     7.9000,        0 
     31.80,     180.00,      98.72,     100.00,     7.9500,        0 
     32.00,     180.00,      99.12,     100.00,     8.0000,        0 
     32.20,     180.00,      99.52,     100.00,     8.0500,        0 
     32.40,     180.00,      99.93,     100.00,     8.1000,        0 
     32.60,     180.00,     100.32,     100.00,     8.1500,        0 
     32.80,     180.00,     100.72,     100.00,     8.2000,        0 
     33.00,     180.00,     101.12,     100.00,     8.2500,        0 
     33.20,     180.00,     101.51,     100.00,     8.3000,        0 
     33.40,     180.00,     101.90,     100.00,     8.3500,        0 
     33.60,     180.00,     102.29,     100.00,     8.4000,        0 
     33.80,     180.00,     102.68,     100.00,     8.4500,        0 
     34.00,     180.00,     103.07,     100.00,     8.5000,        0 
     34.20,     180.00,     103.45,     100.00,     8.5500,        0 
     34.40,     180.00,     103.83,     100.00,     8.6000,        0 
     34.60,     180.00,     104.21,     100.00,     8.6500,        0 
     34.80,     180.00,     104.59,     100.00,     8.7000,        0 
     35.00,     180.00,     104.96,     100.00,     8.7500,        0 
     35.20,     180.00,     105.34,     100.00,     8.8000,        0 
     35.40,     180.00,     105.71,     100.00,     8.8500,        0 
     35.60,     180.00,     106.08,     100.00,     8.9000,        0 
     35.80,     180.00,     106.45,     100.00,     8.9500,        0 
     36.00,     180.00,     106.82,     100.00,     9.0000,        0 
     36.20,     180.00,     107.18,     100.00,     9.0500,        0 
     36.40,     180.00,     107.55,     100.00,     9.1000,        0 
     36.60,     180.00,     107.91,     100.00,     9.1500,        0 
     36.80,     180.00,     108.27,     100.00,     9.2000,        0 
     37.00,     180.00,     108.62,     100.00,     9.2500,        0 
     37.20,     180.00,     108.98,     100.00,     9.3000,        0 
     37.40,     180.00,     109.33,     100.00,     9.3500,        0 
     37.60,     180.00,     109.69,     100.00,     9.4000,        0 
     37.80,     180.00,     110.04,     100.00,     9.4500,        0 
     38.00,     180.00,     110.39,     100.00,     9.5000,        0 
     38.20,     180.00,     110.73,     100.00,     9.5500,        0 
     38.40,     180.00,     111.08,     100.00,     9.6000,        0 
     38.60,     180.00,     111.42,     100.00,     9.6500,        0 
     38.80,     180.00,     111.77,     100.00,     9.7000,        0 
     39.00,     180.00,     112.11,     100.00,     9.7500,        0 
     39.20,     180.00,     112.44,     100.00,     9.8000,        0 
     39.40,     180.00,     112.78,     100.00,     9.8500,        0 
     39.60,     180.00,     113.12,     100.00,     9.9000,        0 
     39.80,     180.00,     113.45,     100.00,     9.9500,        0 
     40.00,     180.00,     113.78,     100.00,    10.0000,        0 
     40.20,     180.00,     114.11,     100.00,    10.0500,        0 
     40.40,     180.00,     114.44,     100.00,    10.1000,        0 
     40.60,     180.00,     114.77,     100.00,    10.1500,        0 
     40.80,     180.00,     115.09,     100.00,    10.2000,        0 
     41.00,     180.00,     115.42,     100.00,    10.2500,        0 
     41.20,     180.00,     115.74,     100.00,    10.3000,        0 
     41.40,     180.00,     116.06,     100.00,    10.3500,        0 
     41.60,     180.00,     116.38,     100.00,    10.4000,        0 
     41.80,     180.00,     116.70,     100.00,    10.4500,        0 
     42.00,     180.00,     117.01,     100.00,    10.5000,        0 
     42.20,     180.00,     117.33,     100.00,    10.5500,        0 
     42.40,     180.00,     117.64,     100.00,    10.6000,        0 
     42.60,     180.00,     117.95,     100.00,    10.6500,        0 
     42.80,     180.00,     118.26,     100.00,    10.7000,        0 
     43.00,     180.00,     118.57,     100.00,    10.7500,        0 
     43.20,     180.00,     118.87,     100.00,    10.8000,        0 
     43.40,     180.00,     119.18,     100.00,    10.8500,        0 
     43.60,     180.00,     119.48,     100.00,    10.9000,        0 
     43.80,     180.00,     119.78,     100.00,    10.9500,        0 
     44.00,     180.00,     120.08,     100.00,    11.0000,        0 
     44.20,     180.00,     120.38,     100.00,    11.0500,        0 
     44.40,     180.00,     120.68,     100.00,    11.1000,        0 
     44.60,     180.00,     120.98,     100.00,    11.1500,        0 
     44.80,     180.00,     121.27,     100.00,    11.2000,        0 
     45.00,     180.00,     121.56,     100.00,    11.2500,        0 
     45.20,     180.00,     121.85,     100.00,    11.3000,        0 
     45.40,     180.00,     122.14,     100.00,    11.3500,        0 
     45.60,     180.00,     122.43,     100.00,    11.4000,        0 
     45.80,     180.00,     122.72,     100.00,    11.4500,        0 
     46.00,     180.00,     123.01,     100.00,    11.5000,        0 
     46.20,     180.00,     123.29,     100.00,    11.5500,        0 
     46.40,     180.00,     123.57,     100.00,    11.6000,        0 
     46.60,     180.00,     123.85,     100.00,    11.6500,        0 
     46.80,     180.00,     124.13,     100.00,    11.7000,        0 
     47.00,     180.00,     124.41,     100.00,    11.7500,        0 
     47.20,     180.00,     124.69,     100.00,    11.8000,        0 
     47.40,     180.00,     124.97,     100.00,    11.8500,        0 
     47.60,     180.00,     125.24,     100.00,    11.9000,        0 
     47.80,     180.00,     125.51,     100.00,    11.9500,        0 
     48.00,     180.00,     125.79,     100.00,    12.0000,        0 
     48.20,     180.00,     126.06,     100.00,    12.0500,        0 
     48.40,     180.00,     126.32,     100.00,    12.1000,        0 
     48.60,     180.00,     126.59,     100.00,    12.1500,        0 
     48.80,     180.00,     126.86,     100.00,    12.2000,        0 
     49.00,     180.00,     127.12,     100.00,    12.2500,        0 
     49.20,     180.00,     127.39,     100.00,    12.3000,        0 
     49.40,     180.00,     127.65,     100.00,    12.3500,        0 
     49.60,     180.00,     127.91,     100.00,    12.4000,        0 
     49.80,     180.00,     128.17,     100.00,    12.4500,        0 
     50.00,     180.00,     128.43,     100.00,    12.5000,        0 
     50.20,     180.00,     128.69,     100.00,    12.5500,        0 
     50.40,     180.00,     128.94,     100.00,    12.6000,        0 
     50.60,     180.00,     129.20,     100.00,    12.6500,        0 
     50.80,     198.10,     129.54,      90.87,    12.7050,        1 
     51.00,     198.10,     129.88,      90.87,    12.7601,        1 
     51.20,     198.10,     130.22,      90.87,    12.8151,        1 
     51.40,     198.10,     130.56,      90.87,    12.8701,        1 
     51.60,     198.10,     130.90,      90.87,    12.9251,        1 
     51.80,     198.10,     131.23,      90.87,    12.9802,        1 
     52.00,     198.10,     131.57,      90.87,    13.0352,        1 
     52.20,     198.10,     131.90,      90.87,    13.0902,        1 
     52.40,     198.10,     132.23,      90.87,    13.1452,        1 
     52.60,     198.10,     132.56,      90.87,    13.2003,        1 
     52.80,     198.10,     132.88,      90.87,    13.2553,        1 
     53.00,     198.10,     133.21,      90.87,    13.3103,        1 
     53.20,     198.53,     133.54,      90.67,    13.3655,        2 
     53.40,     198.53,     133.86,      90.67,    13.4206,        2 
     53.60,     198.53,     134.18,      90.67,    13.4758,        2 
     53.80,     198.53,     134.50,      90.67,    13.5309,        2 
     54.00,     198.53,     134.82,      90.67,    13.5861,        2 
     54.20,     198.53,     135.14,      90.67,    13.6412,        2 
     54.40,     198.53,     135.46,      90.67,    13.6963,        2 
     54.60,     198.53,     135.77,      90.67,    13.7515,        2 
     54.80,     198.53,     136.08,      90.67,    13.8066,        2 
     55.00,     198.53,     136.39,      90.67,    13.8618,        2 
     55.20,     198.53,     136.70,      90.67,    13.9169,        2 
     55.40,     198.53,     137.01,      90.67,    13.9721,        2 
     55.60,     198.53,     137.32,      90.67,    14.0272,        2 
     55.80,     198.53,     137.63,      90.67,    14.0824,        2 
     56.00,     198.53,     137.93,      90.67,    14.1375,        2 
     56.20,     198.53,     138.23,      90.67,    14.1927,        2 
     56.40,     198.53,     138.53,      90.67,    14.2478,        2 
     56.60,     198.53,     138.83,      90.67,    14.3030,        2 
     56.80,     198.53,     139.13,      90.67,    14.3581,        2 
     57.00,     198.53,     139.43,      90.67,    14.4133,        2 
     57.20,     198.53,     139.72,      90.67,    14.4684,        2 
     57.40,     198.53,     140.01,      90.67,    14.5235,        2 
     57.60,     198.53,     140.31,      90.67,    14.5787,        2 
     57.80,     198.53,     140.60,      90.67,    14.6338,        2 
     58.00,     198.53,     140.88,      90.67,    14.6890,        2 
     58.20,     198.53,     141.17,      90.67,    14.7441,        2 
     58.40,     198.53,     141.46,      90.67,    14.7993,        2 
     58.60,     198.53,     141.74,      90.67,    14.8544,        2 
     58.80,     198.53,     142.03,      90.67,    14.9096,        2 
     59.00,     198.53,     142.31,      90.67,    14.9647,        2 
     59.20,     198.53,     142.59,      90.67,    15.0199,        2 
     59.40,     198.53,     142.87,      90.67,    15.0750,        2 
     59.60,     198.53,     143.14,      90.67,    15.1302,        2 
     59.80,     198.53,     143.42,      90.67,    15.1853,        2 
     60.00,     200.50,     143.71,      89.77,    15.2410,        3 
     60.20,     200.50,     143.99,      89.77,    15.2967,        3 
     60.40,     200.50,     144.27,      89.77,    15.3524,        3 
     60.60,     200.50,     144.55,      89.77,    15.4081,        3 
     60.80,     200.50,     144.83,      89.77,    15.4638,        3 
     61.00,     200.50,     145.11,      89.77,    15.5195,        3 
     61.20,     200.50,     145.38,      89.77,    15.5752,        3 
     61.40,     200.50,     145.66,      89.77,    15.6309,        3 
     61.60,     200.50,     145.93,      89.77,    15.6866,        3 
     61.80,     200.50,     146.20,      89.77,    15.7423,        3 
     62.00,     200.50,     146.48,      89.77,    15.7980,        3 
     62.20,     200.50,     146.75,      89.77,    15.8537,        3 
     62.40,     200.50,     147.01,      89.77,    15.9093,        3 
     62.60,     200.50,     147.28,      89.77,    15.9650,        3 
     62.80,     200.50,     147.55,      89.77,    16.0207,        3 
     63.00,     200.50,     147.81,      89.77,    16.0764,        3 
     63.20,     200.50,     148.07,      89.77,    16.1321,        3 
     63.40,     200.50,     148.33,      89.77,    16.1878,        3 
     63.60,     200.50,     148.59,      89.77,    16.2435,        3 
     63.80,     200.50,     148.85,      89.77,    16.2992,        3 
     64.00,     200.50,     149.11,      89.77,    16.3549,        3 
     64.20,     200.50,     149.37,      89.77,    16.4106,        3 
     64.40,     200.50,     149.62,      89.77,    16.4663,        3 
     64.60,     200.50,     149.88,      89.77,    16.5220,        3 
     64.80,     200.50,     150.13,      89.77,    16.5777,        3 
     65.00,     200.50,     150.38,      89.77,    16.6334,        3 
     65.20,     200.50,     150.63,      89.77,    16.6891,        3 
     65.40,     200.50,     150.88,      89.77,    16.7448,        3 
     65.60,     200.50,     151.13,      89.77,    16.8005,        3 
     65.80,     200.50,     151.37,      89.77,    16.8562,        3 
     66.00,     200.50,     151.62,      89.77,    16.9119,        3 
     66.20,     200.50,     151.86,      89.77,    16.9676,        3 
     66.40,     200.50,     152.10,      89.77,    17.0233,        3 
     66.60,     200.50,     152.34,      89.77,    17.0789,        3 
     66.80,     200.50,     152.59,      89.77,    17.1346,        3 
     67.00,     207.54,     152.86,      86.73,    17.1923,        4 
     67.20,     207.54,     153.13,      86.73,    17.2499,        4 
     67.40,     209.31,     153.41,      86.00,    17.3081,        5 
     67.60,     209.31,     153.69,      86.00,    17.3662,        5 
     67.80,     209.31,     153.97,      86.00,    17.4244,        5 
     68.00,     209.31,     154.24,      86.00,    17.4825,        5 
     68.20,     209.31,     154.52,      86.00,    17.5407,        5 
     68.40,     209.31,     154.79,      86.00,    17.5988,        5 
     68.60,     209.31,     155.06,      86.00,    17.6569,        5 
     68.80,     209.31,     155.33,      86.00,    17.7151,        5 
     69.00,     209.31,     155.60,      86.00,    17.7732,        5 
     69.20,     209.31,     155.87,      86.00,    17.8314,        5 
     69.40,     209.31,     156.14,      86.00,    17.8895,        5 
     69.60,     209.31,     156.40,      86.00,    17.9477,        5 
     69.80,     211.58,     156.68,      85.08,    18.0064,        6 
     70.00,     211.58,     156.95,      85.08,    18.0652,        6 
     70.20,     211.58,     157.23,      85.08,    18.1240,        6 
     70.40,     211.58,     157.50,      85.08,    18.1827,        6 
     70.60,     211.58,     157.77,      85.08,    18.2415,        6 
     70.80,     211.58,     158.03,      85.08,    18.3003,        6 
     71.00,     211.58,     158.30,      85.08,    18.3591,        6 
     71.20,     211.58,     158.57,      85.08,    18.4178,        6 
     71.40,     211.58,     158.83,      85.08,    18.4766,        6 
     71.60,     211.58,     159.09,      85.08,    18.5354,        6 
     71.80,     211.58,     159.36,      85.08,    18.5941,        6 
     72.00,     211.58,     159.62,      85.08,    18.6529,        6 
     72.20,     211.58,     159.88,      85.08,    18.7117,        6 
     72.40,     211.58,     160.13,      85.08,    18.7705,        6 
     72.60,     211.58,     160.39,      85.08,    18.8292,        6 
     72.80,     211.58,     160.65,      85.08,    18.8880,        6 
     73.00,     211.58,     160.90,      85.08,    18.9468,        6 
     73.20,     211.58,     161.15,      85.08,    19.0055,        6 
     73.40,     211.58,     161.40,      85.08,    19.0643,        6 
     73.60,     211.58,     161.65,      85.08,    19.1231,        6 
     73.80,     211.58,     161.90,      85.08,    19.1819,        6 
     74.00,     211.58,     162.15,      85.08,    19.2406,        6 
     74.20,     211.58,     162.40,      85.08,    19.2994,        6 
     74.40,     211.58,     162.64,      85.08,    19.3582,        6 
     74.60,     211.58,     162.89,      85.08,    19.4169,        6 
     74.80,     211.58,     163.13,      85.08,    19.4757,        6 
     75.00,     211.58,     163.37,      85.08,    19.5345,        6 
     75.20,     211.58,     163.61,      85.08,    19.5933,        6 
     75.40,     211.58,     163.85,      85.08,    19.6520,        6 
     75.60,     211.58,     164.09,      85.08,    19.7108,        6 
     75.80,     211.58,     164.33,      85.08,    19.7696,        6 
     76.00,     211.58,     164.56,      85.08,    19.8283,        6 
     76.20,     211.58,     164.80,      85.08,    19.8871,        6 
     76.40,     211.58,     165.03,      85.08,    19.9459,        6 
     76.60,     211.58,     165.26,      85.08,    20.0047,        6 
     76.80,     211.58,     165.49,      85.07,    20.0634,        6 
     77.00,     211.59,     165.72,      85.07,    20.1222,        6 
     77.20,     211.61,     165.95,      85.06,    20.1810,        6 
     77.40,     211.63,     166.18,      85.06,    20.2398,        6 
     77.60,     211.65,     166.41,      85.05,    20.2986,        6 
     77.80,     211.67,     166.63,      85.04,    20.3574,        6 
     78.00,     211.70,     166.86,      85.03,    20.4162,        6 
     78.20,     211.72,     167.08,      85.02,    20.4750,        6 
     78.40,     211.75,     167.30,      85.00,    20.5338,        6 
     78.60,     211.79,     167.52,      84.99,    20.5926,        6 
     78.80,     211.82,     167.75,      84.98,    20.6515,        6 
     79.00,     211.85,     167.97,      84.97,    20.7103,        6 
     79.20,     211.89,     168.18,      84.95,    20.7692,        6 
     79.40,     211.92,     168.40,      84.94,    20.8280,        6 
     79.60,     211.96,     168.62,      84.92,    20.8869,        6 
     79.80,     211.99,     168.84,      84.91,    20.9458,        6 
     80.00,     224.01,     169.11,      80.35,    21.0080,        6 
     80.20,     224.05,     169.39,      80.34,    21.0703,        6 
     80.40,     224.08,     169.66,      80.33,    21.1325,        6 
     80.60,     224.12,     169.93,      80.31,    21.1948,        6 
     80.80,     224.15,     170.20,      80.30,    21.2570,        6 
     81.00,     224.19,     170.47,      80.29,    21.3193,        6 
     81.20,     227.76,     170.76,      79.03,    21.3826,        7 
     81.40,     227.79,     171.04,      79.02,    21.4458,        7 
     81.60,     227.82,     171.32,      79.01,    21.5091,        7 
     81.80,     227.84,     171.60,      79.00,    21.5724,        7 
     82.00,     227.87,     171.89,      78.99,    21.6357,        7 
     82.20,     227.90,     172.16,      78.98,    21.6990,        7 
     82.40,     227.92,     172.44,      78.97,    21.7623,        7 
     82.60,     227.95,     172.72,      78.97,    21.8256,        7 
     82.80,     230.44,     173.01,      78.11,    21.8897,        8 
     83.00,     230.46,     173.29,      78.10,    21.9537,        8 
     83.20,     230.48,     173.58,      78.10,    22.0177,        8 
     83.40,     230.50,     173.86,      78.09,    22.0817,        8 
     83.60,     230.52,     174.15,      78.08,    22.1458,        8 
     83.80,     230.54,     174.43,      78.08,    22.2098,        8 
     84.00,     230.56,     174.71,      78.07,    22.2738,        8 
     84.20,     230.58,     174.99,      78.07,    22.3379,        8 
     84.40,     230.59,     175.26,      78.06,    22.4019,        8 
     84.60,     230.61,     175.54,      78.05,    22.4660,        8 
     84.80,     230.63,     175.81,      78.05,    22.5301,        8 
     85.00,     230.64,     176.09,      78.04,    22.5941,        8 
     85.20,     230.66,     176.36,      78.04,    22.6582,        8 
     85.40,     230.67,     176.63,      78.03,    22.7223,        8 
     85.60,     230.68,     176.90,      78.03,    22.7864,        8 
     85.80,     230.70,     177.17,      78.02,    22.8504,        8 
     86.00,     230.71,     177.44,      78.02,    22.9145,        8 
     86.20,     230.72,     177.70,      78.02,    22.9786,        8 
     86.40,     230.73,     177.97,      78.01,    23.0427,        8 
     86.60,     230.74,     178.23,      78.01,    23.1068,        8 
     86.80,     230.76,     178.49,      78.00,    23.1709,        8 
     87.00,     230.77,     178.75,      78.00,    23.2350,        8 
     87.20,     230.78,     179.01,      78.00,    23.2991,        8 
     87.40,     230.79,     179.27,      77.99,    23.3632,        8 
     87.60,     230.80,     179.53,      77.99,    23.4273,        8 
     87.80,     230.80,     179.78,      77.99,    23.4914,        8 
     88.00,     230.81,     180.04,      77.99,    23.5556,        8 
     88.20,     230.82,     180.29,      77.98,    23.6197,        8 
     88.40,     231.14,     180.54,      77.87,    23.6839,        9 
     88.60,     231.15,     180.80,      77.87,    23.7481,        9 
     88.80,     231.15,     181.05,      77.87,    23.8123,        9 
     89.00,     231.16,     181.30,      77.87,    23.8765,        9 
     89.20,     231.17,     181.55,      77.87,    23.9407,        9 
     89.40,     231.17,     181.79,      77.86,    24.0049,        9 
     89.60,     231.18,     182.04,      77.86,    24.0691,        9 
     89.80,     231.18,     182.28,      77.86,    24.1334,        9 
     90.00,     231.40,     182.53,      77.79,    24.1976,       10 
     90.20,     231.41,     182.77,      77.79,    24.2619,       10 
     90.40,     231.41,     183.02,      77.78,    24.3262,       10 
     90.60,     231.42,     183.26,      77.78,    24.3905,       10 
     90.80,     231.42,     183.50,      77.78,    24.4548,       10 
     91.00,     231.42,     183.74,      77.78,    24.5191,       10 
     91.20,     231.43,     183.97,      77.78,    24.5833,       10 
     91.40,     234.42,     184.23,      76.79,    24.6485,       10 
     91.60,     234.42,     184.48,      76.78,    24.7136,       10 
     91.80,     234.43,     184.73,      76.78,    24.7787,       10 
     92.00,     234.43,     184.97,      76.78,    24.8438,       10 
     92.20,     234.43,     185.22,      76.78,    24.9089,       10 
     92.40,     234.44,     185.47,      76.78,    24.9741,       10 
     92.60,     234.44,     185.71,      76.78,    25.0392,       10 
     92.80,     234.44,     185.95,      76.78,    25.1043,       10 
     93.00,     234.44,     186.19,      76.78,    25.1694,       10 
     93.20,     234.45,     186.44,      76.78,    25.2345,       10 
     93.40,     234.45,     186.67,      76.78,    25.2997,       10 
     93.60,     234.45,     186.91,      76.77,    25.3648,       10 
     93.80,     234.45,     187.15,      76.77,    25.4299,       10 
     94.00,     234.46,     187.39,      76.77,    25.4950,       10 
     94.20,     234.46,     187.62,      76.77,    25.5602,       10 
     94.40,     234.46,     187.85,      76.77,    25.6253,       10 
     94.60,     234.46,     188.09,      76.77,    25.6904,       10 
     94.80,     234.46,     188.32,      76.77,    25.7556,       10 
     95.00,     234.47,     188.55,      76.77,    25.8207,       10 
     95.20,     234.47,     188.78,      76.77,    25.8858,       10 
     95.40,     247.28,     189.07,      72.79,    25.9545,       11 
     95.60,     247.28,     189.36,      72.79,    26.0232,       11 
     95.80,     247.29,     189.65,      72.79,    26.0919,       11 
     96.00,     247.29,     189.94,      72.79,    26.1606,       11 
     96.20,     247.29,     190.22,      72.79,    26.2293,       11 
     96.40,     247.29,     190.51,      72.79,    26.2980,       11 
     96.60,     247.29,     190.79,      72.79,    26.3667,       11 
     96.80,     247.29,     191.07,      72.79,    26.4353,       11 
     97.00,     247.29,     191.35,      72.79,    26.5040,       11 
     97.20,     247.29,     191.63,      72.79,    26.5727,       11 
     97.40,     247.29,     191.91,      72.79,    26.6414,       11 
     97.60,     247.30,     192.19,      72.79,    26.7101,       11 
     97.80,     247.30,     192.46,      72.79,    26.7788,       11 
     98.00,     247.30,     192.73,      72.79,    26.8475,       11 
     98.20,     247.30,     193.01,      72.79,    26.9162,       11 
     98.40,     247.30,     193.28,      72.79,    26.9849,       11 
     98.60,     247.30,     193.55,      72.79,    27.0536,       11 
     98.80,     247.30,     193.81,      72.79,    27.1223,       11 
     99.00,     247.30,     194.08,      72.79,    27.1910,       11 
     99.20,     247.30,     194.35,      72.79,    27.2597,       11 
     99.40,     247.30,     194.61,      72.79,    27.3284,       11 
     99.60,     247.30,     194.87,      72.79,    27.3971,       11 
     99.80,     247.30,     195.13,      72.78,    27.4658,       11 
    100.00,     247.30,     195.39,      72.78,    27.5345,       11 
    100.20,     247.31,     195.65,      72.78,    27.6031,       11 
    100.40,     247.31,     195.91,      72.78,    27.6718,       11 
    100.60,     247.31,     196.17,      72.78,    27.7405,       11 
    100.80,     247.31,     196.42,      72.78,    27.8092,       11 
    101.00,     247.31,     196.68,      72.78,    27.8779,       11 
    101.20,     247.31,     196.93,      72.78,    27.9466,       11 
    101.40,     247.31,     197.18,      72.78,    28.0153,       11 
    101.60,     247.31,     197.43,      72.78,    28.0840,       11 
    101.80,     247.31,     197.68,      72.78,    28.1527,       11 
    102.00,     247.99,     197.93,      72.58,    28.2216,       12 
    102.20,     248.00,     198.18,      72.58,    28.2905,       12 
    102.40,     248.00,     198.43,      72.58,    28.3594,       12 
    102.60,     248.00,     198.68,      72.58,    28.4283,       12 
    102.80,     248.00,     198.92,      72.58,    28.4972,       12 
    103.00,     248.00,     199.17,      72.58,    28.5660,       12 
    103.20,     248.00,     199.41,      72.58,    28.6349,       12 
    103.40,     248.00,     199.65,      72.58,    28.7038,       12 
    103.60,     248.00,     199.89,      72.58,    28.7727,       12 
    103.80,     248.00,     200.13,      72.58,    28.8416,       12 
    104.00,     247.98,     200.37,      72.59,    28.9105,       13 
    104.20,     248.00,     200.61,      72.58,    28.9794,       13 
    104.40,     248.02,     200.85,      72.57,    29.0483,       13 
    104.60,     248.04,     201.08,      72.57,    29.1172,       13 
    104.80,     248.06,     201.32,      72.56,    29.1861,       13 
    105.00,     248.07,     201.55,      72.56,    29.2550,       13 
    105.20,     248.09,     201.78,      72.55,    29.3239,       13 
    105.40,     248.11,     202.01,      72.55,    29.3928,       13 
    105.60,     248.12,     202.24,      72.54,    29.4617,       13 
    105.80,     248.14,     202.47,      72.54,    29.5307,       13 
    106.00,     248.15,     202.70,      72.54,    29.5996,       13 
    106.20,     248.17,     202.93,      72.53,    29.6685,       13 
    106.40,     248.18,     203.15,      72.53,    29.7375,       13 
    106.60,     248.20,     203.38,      72.52,    29.8064,       13 
    106.80,     248.21,     203.60,      72.52,    29.8754,       13 
    107.00,     248.22,     203.82,      72.52,    29.9443,       13 
    107.20,     248.23,     204.04,      72.51,    30.0133,       13 
    107.40,     248.25,     204.26,      72.51,    30.0822,       13 
    107.60,     248.26,     204.48,      72.51,    30.1512,       13 
    107.80,     248.27,     204.70,      72.50,    30.2201,       13 
    108.00,     248.28,     204.92,      72.50,    30.2891,       13 
    108.20,     248.29,     205.14,      72.50,    30.3581,       13 
    108.40,     248.30,     205.35,      72.49,    30.4271,       13 
    108.60,     248.31,     205.56,      72.49,    30.4960,       13 
    108.80,     247.65,     205.77,      72.68,    30.5648,       14 
    109.00,     247.66,     205.98,      72.68,    30.6336,       14 
    109.20,     247.67,     206.19,      72.68,    30.7024,       14 
    109.40,     247.68,     206.40,      72.68,    30.7712,       14 
    109.60,     247.68,     206.60,      72.67,    30.8400,       14 
    109.80,     247.69,     206.81,      72.67,    30.9088,       14 
    110.00,     247.70,     207.01,      72.67,    30.9776,       14 
    110.20,     247.71,     207.22,      72.67,    31.0464,       14 
    110.40,     247.10,     207.42,      72.84,    31.1151,       15 
    110.60,     247.14,     207.61,      72.83,    31.1837,       15 
    110.80,     247.20,     207.81,      72.81,    31.2524,       15 
    111.00,     247.29,     208.01,      72.79,    31.3211,       15 
    111.20,     247.29,     208.20,      72.79,    31.3898,       16 
    111.40,     247.43,     208.40,      72.75,    31.4585,       16 
    111.60,     247.61,     208.59,      72.70,    31.5273,       16 
    111.80,     247.81,     208.79,      72.64,    31.5961,       16 
    112.00,     248.04,     208.99,      72.57,    31.6650,       16 
    112.20,     248.31,     209.18,      72.49,    31.7340,       16 
    112.40,     248.60,     209.38,      72.40,    31.8031,       16 
    112.60,     248.94,     209.58,      72.31,    31.8722,       16 
    112.80,     249.30,     209.77,      72.20,    31.9415,       16 
    113.00,     249.70,     209.97,      72.09,    32.0108,       16 
    113.20,     250.14,     210.17,      71.96,    32.0803,       16 
    113.40,     250.61,     210.38,      71.82,    32.1499,       16 
    113.60,     251.12,     210.58,      71.68,    32.2197,       16 
    113.80,     251.67,     210.78,      71.52,    32.2896,       16 
    114.00,     252.26,     210.99,      71.35,    32.3596,       16 
    114.20,     252.89,     211.20,      71.18,    32.4299,       16 
    114.40,     253.57,     211.41,      70.99,    32.5003,       16 
    114.60,     254.28,     211.62,      70.79,    32.5710,       16 
    114.80,     255.04,     211.84,      70.58,    32.6418,       16 
    115.00,     255.84,     212.06,      70.36,    32.7129,       16 
    115.20,     256.69,     212.28,      70.12,    32.7842,       16 
    115.40,     257.71,     212.51,      69.85,    32.8558,       16 
    115.60,     258.79,     212.74,      69.56,    32.9277,       16 
    115.80,     259.91,     212.98,      69.25,    32.9998,       16 
    116.00,     261.10,     213.22,      68.94,    33.0724,       16 
    116.20,     262.34,     213.46,      68.61,    33.1452,       16 
    116.40,     263.63,     213.71,      68.28,    33.2185,       16 
    116.60,     264.98,     213.97,      67.93,    33.2921,       16 
    116.80,     266.39,     214.23,      67.57,    33.3661,       16 
    117.00,     267.86,     214.50,      67.20,    33.4405,       16 
    117.20,     269.39,     214.77,      66.82,    33.5153,       16 
    117.40,     270.98,     215.05,      66.42,    33.5906,       16 
    117.60,     272.64,     215.34,      66.02,    33.6663,       16 
    117.80,     274.35,     215.63,      65.61,    33.7425,       16 
    118.00,     276.13,     215.93,      65.19,    33.8192,       16 
    118.20,     277.97,     216.24,      64.75,    33.8965,       16 
    118.40,     277.39,     216.55,      64.89,    33.9735,       16 
    118.60,     276.83,     216.85,      65.02,    34.0504,       16 
    118.80,     276.30,     217.14,      65.15,    34.1272,       16 
    119.00,     275.79,     217.44,      65.27,    34.2038,       16 
    119.20,     275.30,     217.73,      65.38,    34.2802,       16 
    119.40,     274.84,     218.01,      65.49,    34.3566,       16 
    119.60,     274.41,     218.29,      65.60,    34.4328,       16 
    119.80,     273.99,     218.57,      65.70,    34.5089,       16 
    120.00,     273.59,     218.84,      65.79,    34.5849,       16 
    120.20,     273.22,     219.12,      65.88,    34.6608,       16 
    120.40,     272.86,     219.38,      65.97,    34.7366,       16 
    120.60,     272.53,     219.65,      66.05,    34.8123,       16 
    120.80,     272.21,     219.91,      66.13,    34.8879,       16 
    121.00,     271.91,     220.17,      66.20,    34.9634,       16 
    121.20,     271.62,     220.43,      66.27,    35.0389,       16 
    121.40,     271.35,     220.68,      66.33,    35.1143,       16 
    121.60,     271.10,     220.93,      66.40,    35.1896,       16 
    121.80,     270.86,     221.18,      66.46,    35.2648,       16 
    122.00,     270.63,     221.43,      66.51,    35.3400,       16 
    122.20,     270.42,     221.67,      66.56,    35.4151,       16 
    122.40,     270.22,     221.91,      66.61,    35.4902,       16 
    122.60,     270.03,     222.15,      66.66,    35.5652,       16 
    122.80,     269.85,     222.39,      66.70,    35.6401,       16 
    123.00,     269.68,     222.63,      66.75,    35.7150,       16 
    123.20,     269.52,     222.86,      66.78,    35.7899,       16 
    123.40,     269.37,     223.09,      66.82,    35.8647,       16 
    123.60,     269.23,     223.32,      66.86,    35.9395,       16 
    123.80,     269.10,     223.55,      66.89,    36.0143,       16 
    124.00,     268.97,     223.78,      66.92,    36.0890,       16 
    124.20,     268.85,     224.00,      66.95,    36.1637,       16 
    124.40,     268.73,     224.23,      66.98,    36.2383,       16 
    124.60,     268.61,     224.45,      67.01,    36.3129,       16 
    124.80,     268.50,     224.67,      67.04,    36.3875,       16 
    125.00,     268.39,     224.89,      67.07,    36.4621,       16 
    125.20,     268.28,     225.10,      67.10,    36.5366,       16 
    125.40,     268.16,     225.32,      67.12,    36.6111,       16 
    125.60,     268.05,     225.53,      67.15,    36.6855,       16 
    125.80,     267.94,     225.74,      67.18,    36.7600,       16 
    126.00,     267.82,     225.95,      67.21,    36.8343,       16 
    126.20,     267.69,     226.16,      67.24,    36.9087,       16 
    126.40,     277.80,     226.42,      64.80,    36.9859,       16 
    126.60,     277.72,     226.67,      64.81,    37.0630,       16 
    126.80,     277.64,     226.93,      64.83,    37.1401,       16 
    127.00,     277.55,     227.18,      64.85,    37.2172,       16 
    127.20,     277.45,     227.43,      64.88,    37.2943,       16 
    127.40,     277.34,     227.68,      64.90,    37.3713,       16 
    127.60,     277.23,     227.93,      64.93,    37.4484,       16 
    127.80,     277.12,     228.17,      64.95,    37.5253,       16 
    128.00,     277.00,     228.42,      64.98,    37.6023,       16 
    128.20,     276.88,     228.66,      65.01,    37.6792,       16 
    128.40,     276.75,     228.90,      65.04,    37.7561,       16 
    128.60,     276.62,     229.13,      65.07,    37.8329,       16 
    128.80,     276.49,     229.37,      65.10,    37.9097,       16 
    129.00,     276.37,     229.61,      65.13,    37.9865,       16 
    129.20,     276.25,     229.84,      65.16,    38.0632,       16 
    129.40,     276.13,     230.07,      65.19,    38.1399,       16 
    129.60,     276.02,     230.30,      65.21,    38.2166,       16 
    129.80,     275.91,     230.53,      65.24,    38.2932,       16 
    130.00,     275.81,     230.75,      65.26,    38.3698,       16 
    130.20,     275.71,     230.98,      65.29,    38.4464,       16 
    130.40,     275.61,     231.20,      65.31,    38.5230,       16 
    130.60,     275.51,     231.42,      65.33,    38.5995,       16 
    130.80,     275.43,     231.64,      65.35,    38.6760,       16 
    131.00,     275.35,     231.86,      65.37,    38.7525,       16 
    131.20,     275.27,     232.07,      65.39,    38.8290,       16 
    131.40,     275.21,     232.29,      65.41,    38.9054,       16 
    131.60,     275.15,     232.50,      65.42,    38.9819,       16 
    131.80,     275.38,     232.72,      65.36,    39.0583,       17 
    132.00,     275.33,     232.93,      65.38,    39.1348,       17 
    132.20,     275.29,     233.14,      65.39,    39.2113,       17 
    132.40,     275.25,     233.35,      65.39,    39.2878,       17 
    132.60,     275.22,     233.56,      65.40,    39.3642,       17 
    132.80,     275.19,     233.77,      65.41,    39.4406,       17 
    133.00,     275.17,     233.97,      65.41,    39.5171,       17 
    133.20,     275.15,     234.18,      65.42,    39.5935,       17 
    133.40,     275.13,     234.38,      65.42,    39.6699,       17 
    133.60,     275.12,     234.59,      65.43,    39.7464,       17 
    133.80,     275.11,     234.79,      65.43,    39.8228,       17 
    134.00,     275.11,     234.99,      65.43,    39.8992,       17 
    134.20,     275.10,     235.19,      65.43,    39.9756,       17 
    134.40,     275.10,     235.39,      65.43,    40.0520,       17 
    134.60,     275.11,     235.59,      65.43,    40.1284,       17 
    134.80,     275.11,     235.78,      65.43,    40.2049,       17 
    135.00,     275.12,     235.98,      65.43,    40.2813,       17 
    135.20,     275.97,     236.18,      65.23,    40.3579,       18 
    135.40,     275.97,     236.38,      65.22,    40.4346,       18 
    135.60,     275.98,     236.57,      65.22,    40.5113,       18 
    135.80,     275.99,     236.77,      65.22,    40.5879,       18 
    136.00,     276.00,     236.97,      65.22,    40.6646,       18 
    136.20,     276.01,     237.16,      65.22,    40.7413,       18 
    136.40,     276.02,     237.36,      65.21,    40.8179,       18 
    136.60,     276.03,     237.55,      65.21,    40.8946,       18 
    136.80,     276.04,     237.74,      65.21,    40.9713,       18 
    137.00,     276.76,     237.94,      65.04,    41.0482,       19 
    137.20,     276.77,     238.13,      65.04,    41.1251,       19 
    137.40,     276.78,     238.32,      65.03,    41.2019,       19 
    137.60,     276.79,     238.51,      65.03,    41.2788,       19 
    137.80,     276.80,     238.70,      65.03,    41.3557,       19 
    138.00,     276.81,     238.89,      65.03,    41.4326,       19 
    138.20,     276.82,     239.08,      65.02,    41.5095,       19 
    138.40,     276.84,     239.27,      65.02,    41.5864,       19 
    138.60,     276.85,     239.46,      65.02,    41.6633,       19 
    138.80,     277.45,     239.65,      64.88,    41.7404,       20 
    139.00,     277.46,     239.84,      64.87,    41.8174,       20 
    139.20,     277.47,     240.03,      64.87,    41.8945,       20 
    139.40,     277.48,     240.21,      64.87,    41.9716,       20 
    139.60,     277.49,     240.40,      64.87,    42.0487,       20 
    139.80,     277.49,     240.58,      64.87,    42.1258,       20 
    140.00,     277.50,     240.77,      64.86,    42.2028,       20 
    140.20,     277.51,     240.95,      64.86,    42.2799,       20 
    140.40,     278.03,     241.14,      64.74,    42.3572,       21 
    140.60,     278.04,     241.32,      64.74,    42.4344,       21 
    140.80,     275.82,     241.49,      65.26,    42.5110,       22 
    141.00,     277.47,     241.67,      64.87,    42.5881,       22 
    141.20,     277.48,     241.85,      64.87,    42.6652,       22 
    141.40,     277.49,     242.03,      64.87,    42.7422,       22 
    141.60,     277.50,     242.20,      64.86,    42.8193,       22 
    141.80,     283.13,     242.41,      63.58,    42.8980,       22 
    142.00,     283.14,     242.61,      63.57,    42.9766,       22 
    142.20,     283.15,     242.81,      63.57,    43.0553,       22 
    142.40,     283.16,     243.01,      63.57,    43.1339,       22 
    142.60,     283.17,     243.21,      63.57,    43.2126,       22 
    142.80,     283.17,     243.41,      63.57,    43.2912,       22 
    143.00,     283.18,     243.61,      63.56,    43.3699,       22 
    143.20,     283.19,     243.81,      63.56,    43.4486,       22 
    143.40,     283.20,     244.01,      63.56,    43.5272,       22 
    143.60,     283.20,     244.20,      63.56,    43.6059,       22 
    143.80,     283.21,     244.40,      63.56,    43.6846,       22 
    144.00,     283.22,     244.59,      63.56,    43.7632,       22 
    144.20,     283.22,     244.78,      63.55,    43.8419,       22 
    144.40,     283.23,     244.97,      63.55,    43.9206,       22 
    144.60,     283.24,     245.17,      63.55,    43.9993,       22 
    144.80,     283.24,     245.36,      63.55,    44.0779,       22 
    145.00,     283.25,     245.54,      63.55,    44.1566,       22 
    145.20,     283.25,     245.73,      63.55,    44.2353,       22 
    145.40,     283.26,     245.92,      63.55,    44.3140,       22 
    145.60,     283.26,     246.11,      63.55,    44.3927,       22 
    145.80,     283.27,     246.29,      63.54,    44.4714,       22 
    146.00,     283.27,     246.48,      63.54,    44.5500,       22 
    146.20,     283.28,     246.66,      63.54,    44.6287,       22 
    146.40,     283.30,     246.84,      63.54,    44.7074,       22 
    146.60,     283.32,     247.02,      63.53,    44.7861,       22 
    146.80,     283.36,     247.21,      63.52,    44.8648,       22 
    147.00,     283.41,     247.39,      63.51,    44.9436,       22 
    147.20,     283.48,     247.57,      63.50,    45.0223,       22 
    147.40,     283.56,     247.75,      63.48,    45.1011,       22 
    147.60,     283.65,     247.92,      63.46,    45.1799,       22 
    147.80,     283.76,     248.10,      63.43,    45.2587,       22 
    148.00,     283.89,     248.28,      63.41,    45.3375,       22 
    148.20,     284.03,     248.46,      63.37,    45.4164,       22 
    148.40,     284.20,     248.64,      63.34,    45.4954,       22 
    148.60,     284.38,     248.82,      63.30,    45.5744,       22 
    148.80,     284.59,     248.99,      63.25,    45.6534,       22 
    149.00,     284.81,     249.17,      63.20,    45.7326,       22 
    149.20,     285.06,     249.35,      63.15,    45.8117,       22 
    149.40,     285.32,     249.53,      63.09,    45.8910,       22 
    149.60,     285.62,     249.71,      63.02,    45.9703,       22 
    149.80,     285.93,     249.89,      62.95,    46.0498,       22 
    150.00,     286.26,     250.07,      62.88,    46.1293,       22 
    150.20,     286.61,     250.26,      62.80,    46.2089,       22 
    150.40,     286.98,     250.44,      62.72,    46.2886,       22 
    150.60,     287.36,     250.62,      62.64,    46.3684,       22 
    150.80,     287.77,     250.81,      62.55,    46.4484,       22 
    151.00,     288.19,     251.00,      62.46,    46.5284,       22 
    151.20,     288.63,     251.18,      62.36,    46.6086,       22 
    151.40,     289.09,     251.37,      62.26,    46.6889,       22 
    151.60,     289.56,     251.56,      62.16,    46.7693,       22 
    151.80,     290.05,     251.75,      62.06,    46.8499,       22 
    152.00,     290.55,     251.95,      61.95,    46.9306,       22 
    152.20,     291.07,     252.14,      61.84,    47.0115,       22 
    152.40,     291.60,     252.34,      61.73,    47.0925,       22 
    152.60,     292.14,     252.54,      61.61,    47.1736,       22 
    152.80,     290.75,     252.73,      61.91,    47.2544,       23 
    153.00,     291.31,     252.92,      61.79,    47.3353,       23 
    153.20,     291.87,     253.12,      61.67,    47.4164,       23 
    153.40,     292.44,     253.31,      61.55,    47.4976,       23 
    153.60,     293.01,     253.51,      61.43,    47.5790,       23 
    153.80,     293.59,     253.71,      61.31,    47.6605,       23 
    154.00,     294.17,     253.91,      61.19,    47.7423,       23 
    154.20,     293.34,     254.11,      61.36,    47.8237,       24 
    154.40,     293.88,     254.31,      61.25,    47.9054,       24 
    154.60,     294.41,     254.51,      61.14,    47.9872,       24 
    154.80,     294.94,     254.71,      61.03,    48.0691,       24 
    155.00,     295.46,     254.91,      60.92,    48.1512,       24 
    155.20,     295.98,     255.12,      60.81,    48.2334,       24 
    155.40,     296.49,     255.32,      60.71,    48.3157,       24 
    155.60,     296.99,     255.53,      60.61,    48.3982,       24 
    155.80,     295.96,     255.73,      60.82,    48.4804,       25 
    156.00,     296.40,     255.93,      60.73,    48.5628,       25 
    156.20,     296.83,     256.14,      60.64,    48.6452,       25 
    156.40,     297.24,     256.34,      60.56,    48.7278,       25 
    156.60,     297.64,     256.55,      60.48,    48.8105,       25 
    156.80,     298.02,     256.76,      60.40,    48.8933,       25 
    157.00,     298.38,     256.96,      60.33,    48.9761,       25 
    157.20,     298.72,     257.17,      60.26,    49.0591,       25 
    157.40,     299.05,     257.38,      60.19,    49.1422,       25 
    157.60,     297.79,     257.58,      60.45,    49.2249,       26 
    157.80,     298.06,     257.78,      60.39,    49.3077,       26 
    158.00,     298.31,     257.99,      60.34,    49.3906,       26 
    158.20,     298.55,     258.19,      60.29,    49.4735,       26 
    158.40,     298.77,     258.39,      60.25,    49.5565,       26 
    158.60,     298.97,     258.59,      60.21,    49.6395,       26 
    158.80,     299.15,     258.80,      60.17,    49.7226,       26 
    159.00,     299.32,     259.00,      60.14,    49.8058,       26 
    159.20,     297.99,     259.19,      60.40,    49.8885,       27 
    159.40,     298.12,     259.39,      60.38,    49.9714,       27 
    159.60,     298.23,     259.58,      60.36,    50.0542,       27 
    159.80,     298.34,     259.77,      60.33,    50.1371,       27 
    160.00,     298.43,     259.97,      60.32,    50.2200,       27 
    160.20,     298.52,     260.16,      60.30,    50.3029,       27 
    160.40,     298.60,     260.35,      60.28,    50.3858,       27 
    160.60,     298.53,     260.54,      60.29,    50.4688,       27 
    160.80,     298.45,     260.73,      60.31,    50.5517,       27 
    161.00,     298.36,     260.92,      60.33,    50.6345,       27 
    161.20,     298.26,     261.10,      60.35,    50.7174,       27 
    161.40,     296.11,     261.28,      60.79,    50.7996,       28 
    161.60,     296.03,     261.45,      60.80,    50.8819,       28 
    161.80,     295.94,     261.62,      60.82,    50.9641,       28 
    162.00,     295.83,     261.79,      60.84,    51.0463,       28 
    162.20,     295.71,     261.96,      60.87,    51.1284,       28 
    162.40,     295.58,     262.13,      60.90,    51.2105,       28 
    162.60,     295.43,     262.30,      60.93,    51.2926,       28 
    162.80,     295.27,     262.46,      60.96,    51.3746,       28 
    163.00,     298.56,     262.64,      60.29,    51.4575,       28 
    163.20,     298.39,     262.82,      60.32,    51.5404,       28 
    163.40,     298.20,     263.00,      60.36,    51.6232,       28 
    163.60,     298.01,     263.17,      60.40,    51.7060,       28 
    163.80,     297.80,     263.34,      60.44,    51.7887,       28 
    164.00,     297.60,     263.51,      60.48,    51.8714,       28 
    164.20,     297.39,     263.68,      60.53,    51.9540,       28 
    164.40,     297.19,     263.85,      60.57,    52.0366,       28 
    164.60,     296.99,     264.02,      60.61,    52.1191,       28 
    164.80,     296.79,     264.18,      60.65,    52.2015,       28 
    165.00,     297.15,     264.34,      60.58,    52.2840,       28 
    165.20,     297.00,     264.51,      60.61,    52.3665,       28 
    165.40,     296.85,     264.67,      60.64,    52.4490,       28 
    165.60,     296.71,     264.83,      60.67,    52.5314,       28 
    165.80,     296.57,     264.99,      60.69,    52.6138,       28 
    166.00,     296.45,     265.14,      60.72,    52.6962,       28 
    166.20,     296.33,     265.30,      60.74,    52.7785,       28 
    166.40,     296.21,     265.45,      60.77,    52.8607,       28 
    166.60,     293.86,     265.59,      61.25,    52.9424,       28 
    166.80,     293.78,     265.74,      61.27,    53.0240,       28 
    167.00,     293.71,     265.87,      61.29,    53.1056,       28 
    167.20,     293.64,     266.01,      61.30,    53.1871,       28 
    167.40,     293.59,     266.15,      61.31,    53.2687,       28 
    167.60,     293.54,     266.29,      61.32,    53.3502,       28 
    167.80,     293.50,     266.42,      61.33,    53.4318,       28 
    168.00,     293.47,     266.56,      61.34,    53.5133,       28 
    168.20,     293.45,     266.69,      61.34,    53.5948,       28 
    168.40,     293.43,     266.83,      61.34,    53.6763,       28 
    168.60,     293.41,     266.96,      61.35,    53.7578,       28 
    168.80,     293.41,     267.09,      61.35,    53.8393,       28 
    169.00,     293.40,     267.22,      61.35,    53.9208,       28 
    169.20,     293.40,     267.35,      61.35,    54.0023,       28 
    169.40,     293.41,     267.48,      61.35,    54.0838,       28 
    169.60,     293.41,     267.61,      61.35,    54.1653,       28 
    169.80,     293.42,     267.74,      61.35,    54.2468,       28 
    170.00,     293.43,     267.87,      61.34,    54.3283,       28 
    170.20,     293.44,     268.00,      61.34,    54.4098,       28 
    170.40,     293.45,     268.12,      61.34,    54.4913,       28 
    170.60,     293.47,     268.25,      61.34,    54.5729,       28 
    170.80,     293.49,     268.37,      61.33,    54.6544,       28 
    171.00,     293.51,     268.50,      61.33,    54.7359,       28 
    171.20,     293.54,     268.62,      61.32,    54.8175,       28 
    171.40,     293.56,     268.75,      61.32,    54.8990,       28 
    171.60,     293.59,     268.87,      61.31,    54.9805,       28 
    171.80,     293.61,     269.00,      61.31,    55.0621,       28 
    172.00,     293.63,     269.12,      61.30,    55.1437,       28 
    172.20,     293.65,     269.24,      61.30,    55.2252,       28 
    172.40,     285.47,     269.32,      63.05,    55.3045,       28 
    172.60,     285.48,     269.40,      63.05,    55.3838,       28 
    172.80,     285.50,     269.48,      63.05,    55.4631,       28 
    173.00,     285.51,     269.56,      63.05,    55.5425,       28 
    173.20,     285.51,     269.64,      63.04,    55.6218,       28 
    173.40,     285.51,     269.72,      63.04,    55.7011,       28 
    173.60,     285.51,     269.80,      63.05,    55.7804,       28 
    173.80,     285.49,     269.88,      63.05,    55.8597,       28 
    174.00,     285.48,     269.96,      63.05,    55.9390,       28 
    174.20,     285.45,     270.03,      63.06,    56.0183,       28 
    174.40,     285.42,     270.11,      63.07,    56.0976,       28 
    174.60,     285.38,     270.19,      63.07,    56.1768,       28 
    174.80,     285.33,     270.26,      63.08,    56.2561,       28 
    175.00,     285.28,     270.34,      63.10,    56.3353,       28 
    175.20,     285.22,     270.41,      63.11,    56.4146,       28 
    175.40,     285.16,     270.49,      63.12,    56.4938,       28 
    175.60,     285.09,     270.56,      63.14,    56.5730,       28 
    175.80,     285.01,     270.63,      63.16,    56.6521,       28 
    176.00,     284.93,     270.70,      63.17,    56.7313,       28 
    176.20,     284.84,     270.77,      63.19,    56.8104,       28 
    176.40,     284.74,     270.84,      63.21,    56.8895,       28 
    176.60,     284.65,     270.91,      63.24,    56.9686,       28 
    176.80,     284.54,     270.98,      63.26,    57.0476,       28 
    177.00,     283.54,     271.04,      63.48,    57.1264,       29 
    177.20,     283.44,     271.10,      63.51,    57.2051,       29 
    177.40,     283.34,     271.16,      63.53,    57.2838,       29 
    177.60,     283.24,     271.22,      63.55,    57.3625,       29 
    177.80,     283.13,     271.28,      63.57,    57.4411,       29 
    178.00,     283.02,     271.34,      63.60,    57.5197,       29 
    178.20,     282.92,     271.40,      63.62,    57.5983,       29 
    178.40,     282.81,     271.46,      63.65,    57.6769,       29 
    178.60,     282.71,     271.51,      63.67,    57.7554,       29 
    178.80,     281.82,     271.56,      63.87,    57.8337,       30 
    179.00,     281.75,     271.62,      63.89,    57.9120,       30 
    179.20,     281.68,     271.67,      63.90,    57.9902,       30 
    179.40,     281.62,     271.72,      63.92,    58.0684,       30 
    179.60,     281.57,     271.76,      63.93,    58.1467,       30 
    179.80,     281.52,     271.81,      63.94,    58.2249,       30 
    180.00,     281.48,     271.86,      63.95,    58.3030,       30 
    180.20,     281.44,     271.91,      63.96,    58.3812,       30 
    180.40,     281.41,     271.96,      63.96,    58.4594,       30 
    180.60,     281.39,     272.00,      63.97,    58.5376,       30 
    180.80,     281.38,     272.05,      63.97,    58.6157,       30 
    181.00,     281.38,     272.10,      63.97,    58.6939,       30 
    181.20,     281.39,     272.14,      63.97,    58.7720,       30 
    181.40,     281.41,     272.19,      63.96,    58.8502,       30 
    181.60,     281.44,     272.24,      63.96,    58.9284,       30 
    181.80,     281.48,     272.28,      63.95,    59.0066,       30 
    182.00,     281.53,     272.33,      63.94,    59.0848,       30 
    182.20,     281.59,     272.37,      63.92,    59.1630,       30 
    182.40,     281.66,     272.42,      63.91,    59.2412,       30 
    182.60,     281.74,     272.47,      63.89,    59.3195,       30 
    182.80,     281.84,     272.51,      63.87,    59.3978,       30 
    183.00,     281.95,     272.56,      63.84,    59.4761,       30 
    183.20,     282.07,     272.61,      63.81,    59.5545,       30 
    183.40,     291.02,     272.70,      61.85,    59.6353,       29 
    183.60,     290.26,     272.79,      62.01,    59.7159,       30 
    183.80,     303.67,     272.94,      59.27,    59.8003,       31 
    184.00,     303.95,     273.10,      59.22,    59.8847,       31 
    184.20,     304.24,     273.25,      59.16,    59.9692,       31 
    184.40,     304.55,     273.41,      59.10,    60.0538,       31 
    184.60,     304.87,     273.56,      59.04,    60.1385,       31 
    184.80,     305.20,     273.72,      58.98,    60.2233,       31 
    185.00,     305.56,     273.88,      58.91,    60.3082,       31 
    185.20,     305.92,     274.04,      58.84,    60.3931,       31 
    185.40,     306.30,     274.20,      58.77,    60.4782,       31 
    185.60,     306.69,     274.36,      58.69,    60.5634,       31 
    185.80,     307.10,     274.53,      58.61,    60.6487,       31 
    186.00,     307.52,     274.69,      58.53,    60.7341,       31 
    186.20,     307.95,     274.86,      58.45,    60.8197,       31 
    186.40,     308.39,     275.02,      58.37,    60.9053,       31 
    186.60,     308.84,     275.19,      58.28,    60.9911,       31 
    186.80,     309.30,     275.36,      58.20,    61.0771,       31 
    187.00,     309.77,     275.53,      58.11,    61.1631,       31 
    187.20,     310.25,     275.71,      58.02,    61.2493,       31 
    187.40,     310.73,     275.88,      57.93,    61.3356,       31 
    187.60,     311.22,     276.06,      57.84,    61.4220,       31 
    187.80,     311.71,     276.24,      57.75,    61.5086,       31 
    188.00,     312.21,     276.42,      57.65,    61.5954,       31 
    188.20,     312.71,     276.60,      57.56,    61.6822,       31 
    188.40,     313.21,     276.78,      57.47,    61.7692,       31 
    188.60,     313.70,     276.96,      57.38,    61.8564,       31 
    188.80,     314.20,     277.15,      57.29,    61.9436,       31 
    189.00,     314.70,     277.34,      57.20,    62.0311,       31 
    189.20,     315.19,     277.53,      57.11,    62.1186,       31 
    189.40,     315.67,     277.72,      57.02,    62.2063,       31 
    189.60,     316.14,     277.91,      56.94,    62.2941,       31 
    189.80,     316.61,     278.10,      56.85,    62.3821,       31 
    190.00,     317.07,     278.29,      56.77,    62.4701,       31 
    190.20,     317.51,     278.49,      56.69,    62.5583,       31 
    190.40,     317.93,     278.69,      56.62,    62.6466,       31 
    190.60,     318.34,     278.89,      56.54,    62.7351,       31 
    190.80,     318.74,     279.08,      56.47,    62.8236,       31 
    191.00,     319.11,     279.28,      56.41,    62.9122,       31 
    191.20,     319.45,     279.48,      56.35,    63.0010,       31 
    191.40,     319.78,     279.68,      56.29,    63.0898,       31 
    191.60,     320.08,     279.89,      56.24,    63.1787,       31 
    191.80,     320.35,     280.09,      56.19,    63.2677,       31 
    192.00,     315.55,     280.26,      57.04,    63.3554,       32 
    192.20,     315.78,     280.44,      57.00,    63.4431,       32 
    192.40,     315.97,     280.62,      56.97,    63.5308,       32 
    192.60,     316.14,     280.80,      56.94,    63.6187,       32 
    192.80,     316.28,     280.97,      56.91,    63.7065,       32 
    193.00,     316.41,     281.15,      56.89,    63.7944,       32 
    193.20,     316.51,     281.33,      56.87,    63.8823,       32 
    193.40,     316.59,     281.50,      56.86,    63.9703,       32 
    193.60,     316.66,     281.68,      56.84,    64.0582,       32 
    193.80,     316.71,     281.85,      56.83,    64.1462,       32 
    194.00,     317.19,     282.03,      56.75,    64.2343,       32 
    194.20,     317.22,     282.20,      56.74,    64.3224,       32 
    194.40,     317.23,     282.38,      56.74,    64.4106,       32 
    194.60,     317.24,     282.55,      56.74,    64.4987,       32 
    194.80,     317.25,     282.73,      56.74,    64.5868,       32 
    195.00,     317.28,     282.90,      56.73,    64.6749,       32 
    195.20,     317.33,     283.07,      56.72,    64.7631,       32 
    195.40,     317.41,     283.24,      56.71,    64.8512,       32 
    195.60,     317.52,     283.41,      56.69,    64.9394,       32 
    195.80,     317.65,     283.58,      56.67,    65.0277,       32 
    196.00,     317.82,     283.75,      56.64,    65.1160,       32 
    196.20,     318.02,     283.92,      56.60,    65.2043,       32 
    196.40,     318.25,     284.10,      56.56,    65.2927,       32 
    196.60,     318.51,     284.27,      56.51,    65.3812,       32 
    196.80,     318.80,     284.44,      56.46,    65.4697,       32 
    197.00,     319.13,     284.61,      56.40,    65.5584,       32 
    197.20,     319.49,     284.79,      56.34,    65.6471,       32 
    197.40,     319.89,     284.96,      56.27,    65.7360,       32 
    197.60,     320.32,     285.14,      56.19,    65.8250,       32 
    197.80,     320.78,     285.32,      56.11,    65.9141,       32 
    198.00,     321.27,     285.49,      56.03,    66.0033,       32 
    198.20,     321.80,     285.68,      55.94,    66.0927,       32 
    198.40,     322.36,     285.86,      55.84,    66.1822,       32 
    198.60,     322.95,     286.04,      55.74,    66.2720,       32 
    198.80,     323.35,     286.23,      55.67,    66.3618,       32 
    199.00,     323.75,     286.42,      55.60,    66.4517,       32 
    199.20,     324.17,     286.61,      55.53,    66.5418,       32 
    199.40,     324.59,     286.79,      55.45,    66.6319,       32 
    199.60,     325.02,     286.99,      55.38,    66.7222,       32 
    199.80,     325.45,     287.18,      55.31,    66.8126,       32 
    200.00,     325.88,     287.37,      55.23,    66.9031,       32 
    200.20,     326.31,     287.56,      55.16,    66.9938,       32 
    200.40,     326.74,     287.76,      55.09,    67.0845,       32 
    200.60,     328.79,     287.96,      54.75,    67.1759,       33 
    200.80,     329.21,     288.17,      54.68,    67.2673,       33 
    201.00,     329.63,     288.38,      54.61,    67.3589,       33 
    201.20,     330.05,     288.59,      54.54,    67.4506,       33 
    201.40,     330.45,     288.79,      54.47,    67.5423,       33 
    201.60,     330.84,     289.00,      54.41,    67.6342,       33 
    201.80,     331.22,     289.21,      54.34,    67.7263,       33 
    202.00,     331.59,     289.43,      54.28,    67.8184,       33 
    202.20,     332.39,     289.64,      54.15,    67.9107,       34 
    202.40,     333.56,     289.86,      53.96,    68.0033,       34 
    202.60,     333.87,     290.08,      53.91,    68.0961,       34 
    202.80,     334.15,     290.30,      53.87,    68.1889,       34 
    203.00,     334.42,     290.52,      53.83,    68.2818,       34 
    203.20,     334.66,     290.74,      53.79,    68.3748,       34 
    203.40,     334.87,     290.96,      53.75,    68.4678,       34 
    203.60,     335.06,     291.18,      53.72,    68.5609,       34 
    203.80,     335.22,     291.40,      53.70,    68.6540,       34 
    204.00,     335.36,     291.62,      53.67,    68.7471,       34 
    204.20,     335.46,     291.84,      53.66,    68.8403,       34 
    204.40,     335.54,     292.05,      53.65,    68.9335,       34 
    204.60,     335.58,     292.27,      53.64,    69.0267,       34 
    204.80,     335.60,     292.49,      53.64,    69.1199,       34 
    205.00,     335.58,     292.70,      53.64,    69.2132,       34 
    205.20,     335.54,     292.92,      53.64,    69.3064,       34 
    205.40,     335.48,     293.13,      53.65,    69.3996,       34 
    205.60,     335.39,     293.34,      53.67,    69.4927,       34 
    205.80,     335.28,     293.55,      53.69,    69.5859,       34 
    206.00,     335.68,     293.76,      53.62,    69.6791,       34 
    206.20,     335.51,     293.97,      53.65,    69.7723,       34 
    206.40,     335.33,     294.17,      53.68,    69.8654,       34 
    206.60,     335.13,     294.38,      53.71,    69.9585,       34 
    206.80,     334.90,     294.58,      53.75,    70.0516,       34 
    207.00,     334.67,     294.78,      53.78,    70.1445,       34 
    207.20,     334.41,     294.98,      53.83,    70.2374,       34 
    207.40,     334.14,     295.17,      53.87,    70.3302,       34 
    207.60,     333.86,     295.36,      53.91,    70.4230,       34 
    207.80,     333.93,     295.56,      53.90,    70.5157,       34 
    208.00,     333.63,     295.75,      53.95,    70.6084,       34 
    208.20,     333.31,     295.93,      54.00,    70.7010,       34 
    208.40,     332.98,     296.12,      54.06,    70.7935,       34 
    208.60,     332.65,     296.30,      54.11,    70.8859,       34 
    208.80,     332.32,     296.48,      54.17,    70.9782,       34 
    209.00,     331.97,     296.66,      54.22,    71.0704,       34 
    209.20,     331.63,     296.83,      54.28,    71.1625,       34 
    209.40,     331.54,     297.01,      54.29,    71.2546,       34 
    209.60,     331.18,     297.18,      54.35,    71.3466,       34 
    209.80,     330.82,     297.34,      54.41,    71.4385,       34 
    210.00,     330.45,     297.51,      54.47,    71.5303,       34 
    210.20,     330.09,     297.67,      54.53,    71.6220,       34 
    210.40,     329.72,     297.83,      54.59,    71.7136,       34 
    210.60,     345.15,     298.07,      52.15,    71.8095,       33 
    210.80,     344.62,     298.30,      52.23,    71.9052,       33 
    211.00,     344.30,     298.53,      52.28,    72.0008,       33 
    211.20,     343.76,     298.75,      52.36,    72.0963,       33 
    211.40,     343.23,     298.98,      52.44,    72.1917,       33 
    211.60,     342.05,     299.19,      52.62,    72.2867,       34 
    211.80,     341.52,     299.40,      52.71,    72.3815,       34 
    212.00,     340.99,     299.61,      52.79,    72.4763,       34 
    212.20,     340.46,     299.81,      52.87,    72.5708,       34 
    212.40,     339.94,     300.01,      52.95,    72.6653,       34 
    212.60,     339.42,     300.21,      53.03,    72.7596,       34 
    212.80,     338.90,     300.40,      53.11,    72.8537,       34 
    213.00,     338.39,     300.59,      53.19,    72.9477,       34 
    213.20,     337.88,     300.78,      53.27,    73.0415,       34 
    213.40,     337.38,     300.96,      53.35,    73.1353,       34 
    213.60,     336.87,     301.14,      53.43,    73.2288,       34 
    213.80,     336.38,     301.32,      53.51,    73.3223,       34 
    214.00,     335.88,     301.49,      53.59,    73.4156,       34 
    214.20,     335.40,     301.66,      53.67,    73.5087,       34 
    214.40,     334.91,     301.82,      53.75,    73.6018,       34 
    214.60,     334.43,     301.99,      53.82,    73.6947,       34 
    214.80,     333.95,     302.15,      53.90,    73.7874,       34 
    215.00,     329.08,     302.28,      54.70,    73.8788,       34 
    215.20,     328.71,     302.41,      54.76,    73.9702,       34 
    215.40,     328.33,     302.54,      54.82,    74.0614,       34 
    215.60,     327.97,     302.67,      54.88,    74.1525,       34 
    215.80,     327.60,     302.79,      54.95,    74.2435,       34 
    216.00,     327.24,     302.91,      55.01,    74.3344,       34 
    216.20,     327.38,     303.04,      54.98,    74.4253,       34 
    216.40,     327.03,     303.16,      55.04,    74.5161,       34 
    216.60,     326.67,     303.27,      55.10,    74.6069,       34 
    216.80,     323.01,     303.37,      55.73,    74.6966,       34 
    217.00,     322.74,     303.47,      55.77,    74.7863,       34 
    217.20,     322.48,     303.56,      55.82,    74.8758,       34 
    217.40,     322.23,     303.66,      55.86,    74.9653,       34 
    217.60,     321.97,     303.75,      55.91,    75.0548,       34 
    217.80,     321.71,     303.84,      55.95,    75.1441,       34 
    218.00,     322.05,     303.93,      55.89,    75.2336,       34 
    218.20,     321.80,     304.02,      55.93,    75.3230,       34 
    218.40,     319.15,     304.09,      56.40,    75.4116,       34 
    218.60,     318.97,     304.17,      56.43,    75.5002,       34 
    218.80,     318.79,     304.24,      56.46,    75.5888,       34 
    219.00,     318.60,     304.31,      56.50,    75.6773,       34 
    219.20,     318.42,     304.38,      56.53,    75.7658,       34 
    219.40,     318.24,     304.45,      56.56,    75.8542,       34 
    219.60,     319.96,     304.53,      56.26,    75.9430,       35 
    219.80,     319.78,     304.60,      56.29,    76.0319,       35 
    220.00,     319.60,     304.68,      56.32,    76.1206,       35 
    220.20,     319.43,     304.75,      56.35,    76.2094,       35 
    220.40,     319.25,     304.82,      56.38,    76.2980,       35 
    220.60,     319.08,     304.90,      56.41,    76.3867,       35 
    220.80,     318.91,     304.97,      56.44,    76.4753,       35 
    221.00,     318.74,     305.03,      56.47,    76.5638,       35 
    221.20,     319.43,     305.11,      56.35,    76.6525,       35 
    221.40,     319.26,     305.18,      56.38,    76.7412,       35 
    221.60,     319.10,     305.25,      56.41,    76.8299,       35 
    221.80,     318.93,     305.31,      56.44,    76.9184,       35 
    222.00,     318.77,     305.38,      56.47,    77.0070,       35 
    222.20,     318.61,     305.45,      56.50,    77.0955,       35 
    222.40,     318.45,     305.51,      56.52,    77.1840,       35 
    222.60,     319.39,     305.58,      56.36,    77.2727,       36 
    222.80,     319.24,     305.65,      56.38,    77.3614,       36 
    223.00,     319.08,     305.72,      56.41,    77.4500,       36 
    223.20,     318.93,     305.78,      56.44,    77.5386,       36 
    223.40,     318.78,     305.85,      56.46,    77.6271,       36 
    223.60,     318.64,     305.91,      56.49,    77.7156,       36 
    223.80,     318.49,     305.97,      56.52,    77.8041,       36 
    224.00,     318.35,     306.04,      56.54,    77.8925,       36 
    224.20,     318.21,     306.10,      56.57,    77.9809,       36 
    224.40,     319.06,     306.16,      56.42,    78.0696,       37 
    224.60,     318.92,     306.22,      56.44,    78.1581,       37 
    224.80,     318.79,     306.29,      56.46,    78.2467,       37 
    225.00,     318.65,     306.35,      56.49,    78.3352,       37 
    225.20,     318.53,     306.41,      56.51,    78.4237,       37 
    225.40,     318.40,     306.47,      56.53,    78.5121,       37 
    225.60,     318.27,     306.53,      56.56,    78.6005,       37 
    225.80,     318.15,     306.59,      56.58,    78.6889,       37 
    226.00,     318.92,     306.65,      56.44,    78.7775,       38 
    226.20,     318.80,     306.71,      56.46,    78.8661,       38 
    226.40,     318.68,     306.77,      56.48,    78.9546,       38 
    226.60,     318.57,     306.83,      56.50,    79.0431,       38 
    226.80,     318.46,     306.89,      56.52,    79.1315,       38 
    227.00,     318.35,     306.94,      56.54,    79.2200,       38 
    227.20,     318.25,     307.00,      56.56,    79.3084,       38 
    227.40,     318.16,     307.05,      56.58,    79.3968,       38 
    227.60,     318.08,     307.11,      56.59,    79.4851,       38 
    227.80,     318.00,     307.16,      56.60,    79.5734,       38 
    228.00,     317.94,     307.22,      56.61,    79.6618,       38 
    228.20,     317.88,     307.27,      56.62,    79.7501,       38 
    228.40,     317.84,     307.32,      56.63,    79.8383,       38 
    228.60,     317.81,     307.38,      56.64,    79.9266,       38 
    228.80,     317.79,     307.43,      56.64,    80.0149,       38 
    229.00,     317.78,     307.48,      56.64,    80.1032,       38 
    229.20,     317.79,     307.53,      56.64,    80.1915,       38 
    229.40,     317.81,     307.58,      56.64,    80.2797,       38 
    229.60,     316.33,     307.63,      56.90,    80.3676,       38 
    229.80,     316.40,     307.67,      56.89,    80.4555,       38 
    230.00,     316.48,     307.71,      56.88,    80.5434,       38 
    230.20,     316.58,     307.76,      56.86,    80.6313,       38 
    230.40,     316.70,     307.80,      56.84,    80.7193,       38 
    230.60,     316.40,     307.84,      56.89,    80.8072,       39 
    230.80,     316.55,     307.89,      56.86,    80.8951,       39 
    231.00,     316.72,     307.93,      56.83,    80.9831,       39 
    231.20,     315.74,     307.97,      57.01,    81.0708,       39 
    231.40,     316.00,     308.01,      56.96,    81.1586,       39 
    231.60,     316.29,     308.05,      56.91,    81.2465,       39 
    231.80,     316.61,     308.10,      56.85,    81.3344,       39 
    232.00,     316.96,     308.14,      56.79,    81.4224,       39 
    232.20,     317.34,     308.19,      56.72,    81.5106,       39 
    232.40,     317.76,     308.23,      56.65,    81.5989,       39 
    232.60,     318.21,     308.28,      56.57,    81.6872,       39 
    232.80,     318.69,     308.33,      56.48,    81.7758,       39 
    233.00,     319.21,     308.39,      56.39,    81.8644,       39 
    233.20,     319.76,     308.45,      56.29,    81.9533,       39 
    233.40,     320.32,     308.51,      56.19,    82.0422,       39 
    233.60,     320.87,     308.57,      56.10,    82.1314,       39 
    233.80,     321.43,     308.63,      56.00,    82.2207,       39 
    234.00,     321.99,     308.70,      55.90,    82.3101,       39 
    234.20,     322.56,     308.77,      55.80,    82.3997,       39 
    234.40,     323.15,     308.84,      55.70,    82.4895,       39 
    234.60,     323.76,     308.91,      55.60,    82.5794,       39 
    234.80,     324.38,     308.99,      55.49,    82.6695,       39 
    235.00,     325.01,     309.07,      55.38,    82.7598,       39 
    235.20,     325.65,     309.15,      55.27,    82.8502,       39 
    235.40,     326.31,     309.24,      55.16,    82.9409,       39 
    235.60,     326.98,     309.33,      55.05,    83.0317,       39 
    235.80,     327.67,     309.42,      54.93,    83.1227,       39 
    236.00,     328.36,     309.51,      54.82,    83.2139,       39 
    236.20,     328.89,     309.61,      54.73,    83.3053,       39 
    236.40,     329.61,     309.71,      54.61,    83.3969,       39 
    236.60,     330.33,     309.81,      54.49,    83.4886,       39 
    236.80,     331.05,     309.92,      54.37,    83.5806,       39 
    237.00,     331.78,     310.03,      54.25,    83.6727,       39 
    237.20,     332.52,     310.14,      54.13,    83.7651,       39 
    237.40,     333.28,     310.25,      54.01,    83.8577,       39 
    237.60,     334.69,     310.38,      53.78,    83.9507,       39 
    237.80,     335.43,     310.50,      53.66,    84.0438,       39 
    238.00,     336.18,     310.63,      53.54,    84.1372,       39 
    238.20,     336.95,     310.76,      53.42,    84.2308,       39 
    238.40,     337.72,     310.89,      53.30,    84.3246,       39 
    238.60,     338.52,     311.03,      53.17,    84.4187,       39 
    238.80,     339.32,     311.17,      53.05,    84.5129,       39 
    239.00,     340.14,     311.32,      52.92,    84.6074,       39 
    239.20,     341.63,     311.47,      52.69,    84.7023,       39 
    239.40,     342.45,     311.62,      52.56,    84.7974,       39 
    239.60,     343.29,     311.78,      52.43,    84.8928,       39 
    239.80,     344.16,     311.94,      52.30,    84.9884,       39 
    240.00,     345.05,     312.11,      52.17,    85.0842,       39 
    240.20,     345.96,     312.28,      52.03,    85.1803,       39 
    240.40,     346.91,     312.45,      51.89,    85.2767,       39 
    240.60,     347.89,     312.63,      51.74,    85.3733,       39 
    240.80,     349.32,     312.81,      51.53,    85.4703,       39 
    241.00,     350.20,     313.00,      51.40,    85.5676,       39 
    241.20,     351.12,     313.19,      51.26,    85.6652,       39 
    241.40,     352.07,     313.38,      51.13,    85.7630,       39 
    241.60,     353.07,     313.58,      50.98,    85.8610,       39 
    241.80,     354.10,     313.78,      50.83,    85.9594,       39 
    242.00,     355.17,     313.99,      50.68,    86.0581,       39 
    242.20,     356.27,     314.20,      50.52,    86.1570,       39 
    242.40,     357.41,     314.41,      50.36,    86.2563,       39 
    242.60,     358.70,     314.63,      50.18,    86.3559,       39 
    242.80,     359.90,     314.86,      50.01,    86.4559,       39 
    243.00,     361.13,     315.09,      49.84,    86.5562,       39 
    243.20,     362.40,     315.33,      49.67,    86.6569,       39 
    243.40,     363.70,     315.57,      49.49,    86.7579,       39 
    243.60,     365.03,     315.81,      49.31,    86.8593,       39 
    243.80,     366.38,     316.07,      49.13,    86.9611,       39 
    244.00,     367.76,     316.32,      48.94,    87.0632,       39 
    244.20,     369.16,     316.59,      48.76,    87.1658,       39 
    244.40,     370.58,     316.86,      48.57,    87.2687,       39 
    244.60,     372.01,     317.13,      48.39,    87.3721,       39 
    244.80,     373.45,     317.41,      48.20,    87.4758,       39 
    245.00,     374.28,     317.70,      48.09,    87.5798,       39 
    245.20,     373.30,     317.97,      48.22,    87.6835,       40 
    245.40,     374.62,     318.26,      48.05,    87.7875,       40 
    245.60,     375.93,     318.54,      47.88,    87.8919,       40 
    245.80,     377.22,     318.84,      47.72,    87.9967,       40 
    246.00,     378.48,     319.13,      47.56,    88.1019,       40 
    246.20,     379.70,     319.44,      47.41,    88.2073,       40 
    246.40,     380.89,     319.74,      47.26,    88.3131,       40 
    246.60,     381.32,     320.05,      47.20,    88.4191,       40 
    246.80,     382.43,     320.36,      47.07,    88.5253,       40 
    247.00,     383.49,     320.68,      46.94,    88.6318,       40 
    247.20,     384.50,     320.99,      46.81,    88.7386,       40 
    247.40,     385.45,     321.32,      46.70,    88.8457,       40 
    247.60,     386.34,     321.64,      46.59,    88.9530,       40 
    247.80,     387.17,     321.97,      46.49,    89.0606,       40 
    248.00,     387.93,     322.30,      46.40,    89.1683,       40 
    248.20,     385.23,     322.61,      46.73,    89.2753,       41 
    248.40,     384.75,     322.92,      46.78,    89.3822,       41 
    248.60,     385.27,     323.23,      46.72,    89.4892,       41 
    248.80,     385.72,     323.54,      46.67,    89.5964,       41 
    249.00,     386.11,     323.85,      46.62,    89.7036,       41 
    249.20,     386.44,     324.17,      46.58,    89.8110,       41 
    249.40,     386.70,     324.48,      46.55,    89.9184,       41 
    249.60,     386.90,     324.79,      46.52,    90.0258,       41 
    249.80,     387.03,     325.10,      46.51,    90.1334,       41 
    250.00,     381.43,     325.38,      47.19,    90.2393,       42 
    250.20,     381.44,     325.66,      47.19,    90.3453,       42 
    250.40,     381.40,     325.94,      47.19,    90.4512,       42 
    250.60,     381.30,     326.22,      47.21,    90.5571,       42 
    250.80,     381.16,     326.49,      47.22,    90.6630,       42 
    251.00,     380.97,     326.76,      47.25,    90.7688,       42 
    251.20,     380.73,     327.03,      47.28,    90.8746,       42 
    251.40,     380.45,     327.30,      47.31,    90.9803,       42 
    251.60,     380.12,     327.56,      47.35,    91.0859,       42 
    251.80,     379.75,     327.82,      47.40,    91.1913,       42 
    252.00,     379.35,     328.08,      47.45,    91.2967,       42 
    252.20,     378.93,     328.33,      47.50,    91.4020,       42 
    252.40,     378.49,     328.58,      47.56,    91.5071,       42 
    252.60,     378.05,     328.83,      47.61,    91.6121,       42 
    252.80,     377.60,     329.07,      47.67,    91.7170,       42 
    253.00,     377.15,     329.31,      47.73,    91.8218,       42 
    253.20,     376.70,     329.55,      47.78,    91.9264,       42 
    253.40,     376.26,     329.78,      47.84,    92.0309,       42 
    253.60,     375.83,     330.01,      47.89,    92.1353,       42 
    253.80,     375.42,     330.24,      47.95,    92.2396,       42 
    254.00,     375.03,     330.46,      48.00,    92.3438,       42 
    254.20,     374.65,     330.68,      48.04,    92.4479,       42 
    254.40,     374.30,     330.90,      48.09,    92.5518,       42 
    254.60,     373.98,     331.11,      48.13,    92.6557,       42 
    254.80,     373.68,     331.32,      48.17,    92.7595,       42 
    255.00,     373.41,     331.53,      48.20,    92.8632,       42 
    255.20,     373.17,     331.74,      48.24,    92.9669,       42 
    255.40,     364.50,     331.91,      49.38,    93.0681,       42 
    255.60,     364.32,     332.07,      49.41,    93.1693,       42 
    255.80,     364.16,     332.23,      49.43,    93.2705,       42 
    256.00,     364.04,     332.39,      49.45,    93.3716,       42 
    256.20,     377.51,     332.61,      47.68,    93.4765,       43 
    256.40,     377.43,     332.83,      47.69,    93.5813,       43 
    256.60,     377.37,     333.06,      47.70,    93.6861,       43 
    256.80,     377.33,     333.28,      47.70,    93.7910,       43 
    257.00,     377.31,     333.50,      47.71,    93.8958,       43 
    257.20,     377.29,     333.72,      47.71,    94.0006,       43 
    257.40,     377.29,     333.93,      47.71,    94.1054,       43 
    257.60,     377.29,     334.15,      47.71,    94.2102,       43 
    257.80,     377.29,     334.36,      47.71,    94.3150,       43 
    258.00,     377.30,     334.58,      47.71,    94.4198,       43 
    258.20,     377.30,     334.79,      47.71,    94.5246,       43 
    258.40,     374.46,     334.99,      48.07,    94.6286,       44 
    258.60,     374.45,     335.19,      48.07,    94.7326,       44 
    258.80,     374.43,     335.38,      48.07,    94.8366,       44 
    259.00,     374.40,     335.58,      48.08,    94.9406,       44 
    259.20,     374.36,     335.77,      48.08,    95.0446,       44 
    259.40,     374.30,     335.96,      48.09,    95.1486,       44 
    259.60,     374.23,     336.15,      48.10,    95.2525,       44 
    259.80,     374.13,     336.34,      48.11,    95.3565,       44 
    260.00,     374.02,     336.53,      48.13,    95.4604,       44 
    260.20,     371.41,     336.70,      48.46,    95.5635,       45 
    260.40,     371.27,     336.88,      48.48,    95.6667,       45 
    260.60,     371.10,     337.05,      48.50,    95.7697,       45 
    260.80,     370.92,     337.22,      48.53,    95.8728,       45 
    261.00,     370.71,     337.38,      48.56,    95.9758,       45 
    261.20,     370.48,     337.55,      48.59,    96.0787,       45 
    261.40,     370.23,     337.71,      48.62,    96.1815,       45 
    261.60,     369.95,     337.87,      48.66,    96.2843,       45 
    261.80,     369.65,     338.03,      48.69,    96.3870,       45 
    262.00,     360.68,     338.14,      49.91,    96.4871,       47 
    262.20,     360.35,     338.25,      49.95,    96.5872,       47 
    262.40,     360.00,     338.36,      50.00,    96.6872,       47 
    262.60,     359.64,     338.47,      50.05,    96.7871,       47 
    262.80,     359.25,     338.57,      50.10,    96.8869,       47 
    263.00,     358.84,     338.67,      50.16,    96.9866,       47 
    263.20,     358.41,     338.77,      50.22,    97.0862,       47 
    263.40,     357.96,     338.87,      50.28,    97.1856,       47 
    263.60,     357.49,     338.96,      50.35,    97.2849,       47 
    263.80,     355.35,     339.04,      50.65,    97.3836,       48 
    264.00,     354.88,     339.12,      50.72,    97.4822,       48 
    264.20,     354.40,     339.20,      50.79,    97.5806,       48 
    264.40,     353.90,     339.27,      50.86,    97.6789,       48 
    264.60,     353.39,     339.34,      50.94,    97.7771,       48 
    264.80,     352.87,     339.41,      51.01,    97.8751,       48 
    265.00,     352.34,     339.47,      51.09,    97.9730,       48 
    265.20,     351.80,     339.53,      51.17,    98.0707,       48 
    265.40,     351.25,     339.59,      51.25,    98.1683,       48 
    265.60,     350.70,     339.65,      51.33,    98.2657,       48 
    265.80,     350.14,     339.70,      51.41,    98.3630,       48 
    266.00,     349.57,     339.75,      51.49,    98.4601,       48 
    266.20,     349.00,     339.80,      51.58,    98.5570,       48 
    266.40,     348.43,     339.84,      51.66,    98.6538,       48 
    266.60,     347.86,     339.88,      51.75,    98.7504,       48 
    266.80,     347.29,     339.92,      51.83,    98.8469,       48 
    267.00,     346.72,     339.95,      51.92,    98.9432,       48 
    267.20,     346.15,     339.98,      52.00,    99.0394,       48 
    267.40,     345.59,     340.01,      52.09,    99.1354,       48 
    267.60,     345.03,     340.03,      52.17,    99.2312,       48 
    267.80,     344.47,     340.06,      52.25,    99.3269,       48 
    268.00,     343.92,     340.08,      52.34,    99.4224,       48 
    268.20,     343.37,     340.09,      52.42,    99.5178,       48 
    268.40,     342.83,     340.11,      52.50,    99.6130,       48 
    268.60,     342.29,     340.12,      52.59,    99.7081,       48 
    268.80,     341.76,     340.12,      52.67,    99.8030,       48 
    269.00,     341.24,     340.13,      52.75,    99.8978,       48 
    269.20,     340.72,     340.13,      52.83,    99.9925,       48 
    269.40,     340.20,     340.13,      52.91,   100.0870,       48 
    269.60,     339.69,     340.13,      52.99,   100.1813,       48 
    269.80,     339.19,     340.13,      53.07,   100.2755,       48 
    270.00,     338.69,     340.12,      53.15,   100.3696,       48 
    270.20,     338.20,     340.11,      53.22,   100.4636,       48 
    270.40,     337.72,     340.10,      53.30,   100.5574,       48 
    270.60,     337.24,     340.08,      53.37,   100.6511,       48 
    270.80,     336.78,     340.07,      53.45,   100.7446,       48 
    271.00,     336.33,     340.05,      53.52,   100.8380,       48 
    271.20,     335.90,     340.03,      53.59,   100.9313,       48 
    271.40,     335.49,     340.01,      53.65,   101.0245,       48 
    271.60,     335.09,     339.98,      53.72,   101.1176,       48 
    271.80,     334.72,     339.95,      53.78,   101.2106,       48 
    272.00,     334.36,     339.93,      53.83,   101.3035,       48 
    272.20,     334.03,     339.90,      53.89,   101.3963,       48 
