# number codes for traffic lights status: 
# RED --> 0 
# RED_GREEN --> 1 
# GREEN --> 2 
# GREEN_RED --> 3 
# position of traffic light no. 1: 1500.00m, name=first, groupId=group1
# position of traffic light no. 2: 1000.00m, name=second, groupId=group1
# time[s]   position[m]_TL1  status[1]_TL1   etc.    
    0.00, 1970-01-01T00:00:00Z,  1500.0,  2,  1000.0,  0,  
    1.00, 1970-01-01T00:00:01Z,  1500.0,  2,  1000.0,  0,  
    2.00, 1970-01-01T00:00:02Z,  1500.0,  2,  1000.0,  0,  
    3.00, 1970-01-01T00:00:03Z,  1500.0,  2,  1000.0,  0,  
    4.00, 1970-01-01T00:00:04Z,  1500.0,  2,  1000.0,  0,  
    5.00, 1970-01-01T00:00:05Z,  1500.0,  2,  1000.0,  0,  
    6.00, 1970-01-01T00:00:06Z,  1500.0,  2,  1000.0,  0,  
    7.00, 1970-01-01T00:00:07Z,  1500.0,  2,  1000.0,  0,  
    8.00, 1970-01-01T00:00:08Z,  1500.0,  2,  1000.0,  0,  
    9.00, 1970-01-01T00:00:09Z,  1500.0,  2,  1000.0,  0,  
   10.00, 1970-01-01T00:00:10Z,  1500.0,  2,  1000.0,  0,  
   11.00, 1970-01-01T00:00:11Z,  1500.0,  2,  1000.0,  0,  
   12.00, 1970-01-01T00:00:12Z,  1500.0,  2,  1000.0,  0,  
   13.00, 1970-01-01T00:00:13Z,  1500.0,  2,  1000.0,  0,  
   14.00, 1970-01-01T00:00:14Z,  1500.0,  2,  1000.0,  0,  
   15.00, 1970-01-01T00:00:15Z,  1500.0,  2,  1000.0,  0,  
   16.00, 1970-01-01T00:00:16Z,  1500.0,  2,  1000.0,  0,  
   17.00, 1970-01-01T00:00:17Z,  1500.0,  2,  1000.0,  0,  
   18.00, 1970-01-01T00:00:18Z,  1500.0,  2,  1000.0,  0,  
   19.00, 1970-01-01T00:00:19Z,  1500.0,  2,  1000.0,  0,  
   20.00, 1970-01-01T00:00:20Z,  1500.0,  2,  1000.0,  0,  
   21.00, 1970-01-01T00:00:21Z,  1500.0,  2,  1000.0,  0,  
   22.00, 1970-01-01T00:00:22Z,  1500.0,  2,  1000.0,  0,  
   23.00, 1970-01-01T00:00:23Z,  1500.0,  2,  1000.0,  0,  
   24.00, 1970-01-01T00:00:24Z,  1500.0,  2,  1000.0,  0,  
   25.00, 1970-01-01T00:00:25Z,  1500.0,  2,  1000.0,  0,  
   26.00, 1970-01-01T00:00:26Z,  1500.0,  2,  1000.0,  0,  
   27.00, 1970-01-01T00:00:27Z,  1500.0,  2,  1000.0,  0,  
   28.00, 1970-01-01T00:00:28Z,  1500.0,  2,  1000.0,  0,  
   29.00, 1970-01-01T00:00:29Z,  1500.0,  2,  1000.0,  0,  
   30.00, 1970-01-01T00:00:30Z,  1500.0,  2,  1000.0,  0,  
   31.00, 1970-01-01T00:00:31Z,  1500.0,  2,  1000.0,  0,  
   32.00, 1970-01-01T00:00:32Z,  1500.0,  2,  1000.0,  0,  
   33.00, 1970-01-01T00:00:33Z,  1500.0,  2,  1000.0,  0,  
   34.00, 1970-01-01T00:00:34Z,  1500.0,  2,  1000.0,  0,  
   35.00, 1970-01-01T00:00:35Z,  1500.0,  3,  1000.0,  0,  
   36.00, 1970-01-01T00:00:36Z,  1500.0,  3,  1000.0,  0,  
   37.00, 1970-01-01T00:00:37Z,  1500.0,  3,  1000.0,  0,  
   38.00, 1970-01-01T00:00:38Z,  1500.0,  0,  1000.0,  2,  
   39.00, 1970-01-01T00:00:39Z,  1500.0,  0,  1000.0,  2,  
   40.00, 1970-01-01T00:00:40Z,  1500.0,  0,  1000.0,  2,  
   41.00, 1970-01-01T00:00:41Z,  1500.0,  0,  1000.0,  2,  
   42.00, 1970-01-01T00:00:42Z,  1500.0,  0,  1000.0,  2,  
   43.00, 1970-01-01T00:00:43Z,  1500.0,  0,  1000.0,  2,  
   44.00, 1970-01-01T00:00:44Z,  1500.0,  0,  1000.0,  2,  
   45.00, 1970-01-01T00:00:45Z,  1500.0,  0,  1000.0,  2,  
   46.00, 1970-01-01T00:00:46Z,  1500.0,  0,  1000.0,  2,  
   47.00, 1970-01-01T00:00:47Z,  1500.0,  0,  1000.0,  2,  
   48.00, 1970-01-01T00:00:48Z,  1500.0,  0,  1000.0,  2,  
   49.00, 1970-01-01T00:00:49Z,  1500.0,  0,  1000.0,  2,  
   50.00, 1970-01-01T00:00:50Z,  1500.0,  0,  1000.0,  2,  
   51.00, 1970-01-01T00:00:51Z,  1500.0,  0,  1000.0,  2,  
   52.00, 1970-01-01T00:00:52Z,  1500.0,  0,  1000.0,  2,  
   53.00, 1970-01-01T00:00:53Z,  1500.0,  0,  1000.0,  2,  
   54.00, 1970-01-01T00:00:54Z,  1500.0,  0,  1000.0,  2,  
   55.00, 1970-01-01T00:00:55Z,  1500.0,  0,  1000.0,  2,  
   56.00, 1970-01-01T00:00:56Z,  1500.0,  0,  1000.0,  2,  
   57.00, 1970-01-01T00:00:57Z,  1500.0,  0,  1000.0,  2,  
   58.00, 1970-01-01T00:00:58Z,  1500.0,  0,  1000.0,  2,  
   59.00, 1970-01-01T00:00:59Z,  1500.0,  0,  1000.0,  2,  
   60.00, 1970-01-01T00:01:00Z,  1500.0,  0,  1000.0,  2,  
   61.00, 1970-01-01T00:01:01Z,  1500.0,  0,  1000.0,  2,  
   62.00, 1970-01-01T00:01:02Z,  1500.0,  0,  1000.0,  2,  
   63.00, 1970-01-01T00:01:03Z,  1500.0,  0,  1000.0,  2,  
   64.00, 1970-01-01T00:01:04Z,  1500.0,  0,  1000.0,  2,  
   65.00, 1970-01-01T00:01:05Z,  1500.0,  0,  1000.0,  2,  
   66.00, 1970-01-01T00:01:06Z,  1500.0,  0,  1000.0,  2,  
   67.00, 1970-01-01T00:01:07Z,  1500.0,  0,  1000.0,  2,  
   68.00, 1970-01-01T00:01:08Z,  1500.0,  0,  1000.0,  2,  
   69.00, 1970-01-01T00:01:09Z,  1500.0,  0,  1000.0,  2,  
   70.00, 1970-01-01T00:01:10Z,  1500.0,  0,  1000.0,  2,  
   71.00, 1970-01-01T00:01:11Z,  1500.0,  0,  1000.0,  2,  
   72.00, 1970-01-01T00:01:12Z,  1500.0,  0,  1000.0,  2,  
   73.00, 1970-01-01T00:01:13Z,  1500.0,  0,  1000.0,  2,  
   74.00, 1970-01-01T00:01:14Z,  1500.0,  0,  1000.0,  2,  
   75.00, 1970-01-01T00:01:15Z,  1500.0,  0,  1000.0,  2,  
   76.00, 1970-01-01T00:01:16Z,  1500.0,  0,  1000.0,  2,  
   77.00, 1970-01-01T00:01:17Z,  1500.0,  0,  1000.0,  2,  
   78.00, 1970-01-01T00:01:18Z,  1500.0,  0,  1000.0,  3,  
   79.00, 1970-01-01T00:01:19Z,  1500.0,  0,  1000.0,  3,  
   80.00, 1970-01-01T00:01:20Z,  1500.0,  0,  1000.0,  3,  
   81.00, 1970-01-01T00:01:21Z,  1500.0,  2,  1000.0,  0,  
   82.00, 1970-01-01T00:01:22Z,  1500.0,  2,  1000.0,  0,  
   83.00, 1970-01-01T00:01:23Z,  1500.0,  2,  1000.0,  0,  
   84.00, 1970-01-01T00:01:24Z,  1500.0,  2,  1000.0,  0,  
   85.00, 1970-01-01T00:01:25Z,  1500.0,  2,  1000.0,  0,  
   86.00, 1970-01-01T00:01:26Z,  1500.0,  2,  1000.0,  0,  
   87.00, 1970-01-01T00:01:27Z,  1500.0,  2,  1000.0,  0,  
   88.00, 1970-01-01T00:01:28Z,  1500.0,  2,  1000.0,  0,  
   89.00, 1970-01-01T00:01:29Z,  1500.0,  2,  1000.0,  0,  
   90.00, 1970-01-01T00:01:30Z,  1500.0,  2,  1000.0,  0,  
   91.00, 1970-01-01T00:01:31Z,  1500.0,  2,  1000.0,  0,  
   92.00, 1970-01-01T00:01:32Z,  1500.0,  2,  1000.0,  0,  
   93.00, 1970-01-01T00:01:33Z,  1500.0,  2,  1000.0,  0,  
   94.00, 1970-01-01T00:01:34Z,  1500.0,  2,  1000.0,  0,  
   95.00, 1970-01-01T00:01:35Z,  1500.0,  2,  1000.0,  0,  
   96.00, 1970-01-01T00:01:36Z,  1500.0,  2,  1000.0,  0,  
   97.00, 1970-01-01T00:01:37Z,  1500.0,  2,  1000.0,  0,  
   98.00, 1970-01-01T00:01:38Z,  1500.0,  2,  1000.0,  0,  
   99.00, 1970-01-01T00:01:39Z,  1500.0,  2,  1000.0,  0,  
  100.00, 1970-01-01T00:01:40Z,  1500.0,  2,  1000.0,  0,  
  101.00, 1970-01-01T00:01:41Z,  1500.0,  2,  1000.0,  0,  
  102.00, 1970-01-01T00:01:42Z,  1500.0,  2,  1000.0,  0,  
  103.00, 1970-01-01T00:01:43Z,  1500.0,  2,  1000.0,  0,  
  104.00, 1970-01-01T00:01:44Z,  1500.0,  2,  1000.0,  0,  
  105.00, 1970-01-01T00:01:45Z,  1500.0,  2,  1000.0,  0,  
  106.00, 1970-01-01T00:01:46Z,  1500.0,  2,  1000.0,  0,  
  107.00, 1970-01-01T00:01:47Z,  1500.0,  2,  1000.0,  0,  
  108.00, 1970-01-01T00:01:48Z,  1500.0,  2,  1000.0,  0,  
  109.00, 1970-01-01T00:01:49Z,  1500.0,  2,  1000.0,  0,  
  110.00, 1970-01-01T00:01:50Z,  1500.0,  2,  1000.0,  0,  
  111.00, 1970-01-01T00:01:51Z,  1500.0,  2,  1000.0,  0,  
  112.00, 1970-01-01T00:01:52Z,  1500.0,  2,  1000.0,  0,  
  113.00, 1970-01-01T00:01:53Z,  1500.0,  2,  1000.0,  0,  
  114.00, 1970-01-01T00:01:54Z,  1500.0,  2,  1000.0,  0,  
  115.00, 1970-01-01T00:01:55Z,  1500.0,  2,  1000.0,  0,  
  116.00, 1970-01-01T00:01:56Z,  1500.0,  3,  1000.0,  0,  
  117.00, 1970-01-01T00:01:57Z,  1500.0,  3,  1000.0,  0,  
  118.00, 1970-01-01T00:01:58Z,  1500.0,  3,  1000.0,  0,  
  119.00, 1970-01-01T00:01:59Z,  1500.0,  0,  1000.0,  2,  
  120.00, 1970-01-01T00:02:00Z,  1500.0,  0,  1000.0,  2,  
  121.00, 1970-01-01T00:02:01Z,  1500.0,  0,  1000.0,  2,  
  122.00, 1970-01-01T00:02:02Z,  1500.0,  0,  1000.0,  2,  
  123.00, 1970-01-01T00:02:03Z,  1500.0,  0,  1000.0,  2,  
  124.00, 1970-01-01T00:02:04Z,  1500.0,  0,  1000.0,  2,  
  125.00, 1970-01-01T00:02:05Z,  1500.0,  0,  1000.0,  2,  
  126.00, 1970-01-01T00:02:06Z,  1500.0,  0,  1000.0,  2,  
  127.00, 1970-01-01T00:02:07Z,  1500.0,  0,  1000.0,  2,  
  128.00, 1970-01-01T00:02:08Z,  1500.0,  0,  1000.0,  2,  
  129.00, 1970-01-01T00:02:09Z,  1500.0,  0,  1000.0,  2,  
  130.00, 1970-01-01T00:02:10Z,  1500.0,  0,  1000.0,  2,  
  131.00, 1970-01-01T00:02:11Z,  1500.0,  0,  1000.0,  2,  
  132.00, 1970-01-01T00:02:12Z,  1500.0,  0,  1000.0,  2,  
  133.00, 1970-01-01T00:02:13Z,  1500.0,  0,  1000.0,  2,  
  134.00, 1970-01-01T00:02:14Z,  1500.0,  0,  1000.0,  2,  
  135.00, 1970-01-01T00:02:15Z,  1500.0,  0,  1000.0,  2,  
  136.00, 1970-01-01T00:02:16Z,  1500.0,  0,  1000.0,  2,  
  137.00, 1970-01-01T00:02:17Z,  1500.0,  0,  1000.0,  2,  
  138.00, 1970-01-01T00:02:18Z,  1500.0,  0,  1000.0,  2,  
  139.00, 1970-01-01T00:02:19Z,  1500.0,  0,  1000.0,  2,  
  140.00, 1970-01-01T00:02:20Z,  1500.0,  0,  1000.0,  2,  
  141.00, 1970-01-01T00:02:21Z,  1500.0,  0,  1000.0,  2,  
  142.00, 1970-01-01T00:02:22Z,  1500.0,  0,  1000.0,  2,  
  143.00, 1970-01-01T00:02:23Z,  1500.0,  0,  1000.0,  2,  
  144.00, 1970-01-01T00:02:24Z,  1500.0,  0,  1000.0,  2,  
  145.00, 1970-01-01T00:02:25Z,  1500.0,  0,  1000.0,  2,  
  146.00, 1970-01-01T00:02:26Z,  1500.0,  0,  1000.0,  2,  
  147.00, 1970-01-01T00:02:27Z,  1500.0,  0,  1000.0,  2,  
  148.00, 1970-01-01T00:02:28Z,  1500.0,  0,  1000.0,  2,  
  149.00, 1970-01-01T00:02:29Z,  1500.0,  0,  1000.0,  2,  
  150.00, 1970-01-01T00:02:30Z,  1500.0,  0,  1000.0,  2,  
  151.00, 1970-01-01T00:02:31Z,  1500.0,  0,  1000.0,  2,  
  152.00, 1970-01-01T00:02:32Z,  1500.0,  0,  1000.0,  2,  
  153.00, 1970-01-01T00:02:33Z,  1500.0,  0,  1000.0,  2,  
  154.00, 1970-01-01T00:02:34Z,  1500.0,  0,  1000.0,  2,  
  155.00, 1970-01-01T00:02:35Z,  1500.0,  0,  1000.0,  2,  
  156.00, 1970-01-01T00:02:36Z,  1500.0,  0,  1000.0,  2,  
  157.00, 1970-01-01T00:02:37Z,  1500.0,  0,  1000.0,  2,  
  158.00, 1970-01-01T00:02:38Z,  1500.0,  0,  1000.0,  2,  
  159.00, 1970-01-01T00:02:39Z,  1500.0,  0,  1000.0,  3,  
  160.00, 1970-01-01T00:02:40Z,  1500.0,  0,  1000.0,  3,  
  161.00, 1970-01-01T00:02:41Z,  1500.0,  2,  1000.0,  0,  
  162.00, 1970-01-01T00:02:42Z,  1500.0,  2,  1000.0,  0,  
  163.00, 1970-01-01T00:02:43Z,  1500.0,  2,  1000.0,  0,  
  164.00, 1970-01-01T00:02:44Z,  1500.0,  2,  1000.0,  0,  
  165.00, 1970-01-01T00:02:45Z,  1500.0,  2,  1000.0,  0,  
  166.00, 1970-01-01T00:02:46Z,  1500.0,  2,  1000.0,  0,  
  167.00, 1970-01-01T00:02:47Z,  1500.0,  2,  1000.0,  0,  
  168.00, 1970-01-01T00:02:48Z,  1500.0,  2,  1000.0,  0,  
  169.00, 1970-01-01T00:02:49Z,  1500.0,  2,  1000.0,  0,  
  170.00, 1970-01-01T00:02:50Z,  1500.0,  2,  1000.0,  0,  
  171.00, 1970-01-01T00:02:51Z,  1500.0,  2,  1000.0,  0,  
  172.00, 1970-01-01T00:02:52Z,  1500.0,  2,  1000.0,  0,  
  173.00, 1970-01-01T00:02:53Z,  1500.0,  2,  1000.0,  0,  
  174.00, 1970-01-01T00:02:54Z,  1500.0,  2,  1000.0,  0,  
  175.00, 1970-01-01T00:02:55Z,  1500.0,  2,  1000.0,  0,  
  176.00, 1970-01-01T00:02:56Z,  1500.0,  2,  1000.0,  0,  
  177.00, 1970-01-01T00:02:57Z,  1500.0,  2,  1000.0,  0,  
  178.00, 1970-01-01T00:02:58Z,  1500.0,  2,  1000.0,  0,  
  179.00, 1970-01-01T00:02:59Z,  1500.0,  2,  1000.0,  0,  
  180.00, 1970-01-01T00:03:00Z,  1500.0,  2,  1000.0,  0,  
  181.00, 1970-01-01T00:03:01Z,  1500.0,  2,  1000.0,  0,  
  182.00, 1970-01-01T00:03:02Z,  1500.0,  2,  1000.0,  0,  
  183.00, 1970-01-01T00:03:03Z,  1500.0,  2,  1000.0,  0,  
  184.00, 1970-01-01T00:03:04Z,  1500.0,  2,  1000.0,  0,  
  185.00, 1970-01-01T00:03:05Z,  1500.0,  2,  1000.0,  0,  
  186.00, 1970-01-01T00:03:06Z,  1500.0,  2,  1000.0,  0,  
  187.00, 1970-01-01T00:03:07Z,  1500.0,  2,  1000.0,  0,  
  188.00, 1970-01-01T00:03:08Z,  1500.0,  2,  1000.0,  0,  
  189.00, 1970-01-01T00:03:09Z,  1500.0,  2,  1000.0,  0,  
  190.00, 1970-01-01T00:03:10Z,  1500.0,  2,  1000.0,  0,  
  191.00, 1970-01-01T00:03:11Z,  1500.0,  2,  1000.0,  0,  
  192.00, 1970-01-01T00:03:12Z,  1500.0,  2,  1000.0,  0,  
  193.00, 1970-01-01T00:03:13Z,  1500.0,  2,  1000.0,  0,  
  194.00, 1970-01-01T00:03:14Z,  1500.0,  2,  1000.0,  0,  
  195.00, 1970-01-01T00:03:15Z,  1500.0,  2,  1000.0,  0,  
  196.00, 1970-01-01T00:03:16Z,  1500.0,  3,  1000.0,  0,  
  197.00, 1970-01-01T00:03:17Z,  1500.0,  3,  1000.0,  0,  
  198.00, 1970-01-01T00:03:18Z,  1500.0,  3,  1000.0,  0,  
  199.00, 1970-01-01T00:03:19Z,  1500.0,  0,  1000.0,  2,  
  200.00, 1970-01-01T00:03:20Z,  1500.0,  0,  1000.0,  2,  
  201.00, 1970-01-01T00:03:21Z,  1500.0,  0,  1000.0,  2,  
  202.00, 1970-01-01T00:03:22Z,  1500.0,  0,  1000.0,  2,  
  203.00, 1970-01-01T00:03:23Z,  1500.0,  0,  1000.0,  2,  
  204.00, 1970-01-01T00:03:24Z,  1500.0,  0,  1000.0,  2,  
  205.00, 1970-01-01T00:03:25Z,  1500.0,  0,  1000.0,  2,  
  206.00, 1970-01-01T00:03:26Z,  1500.0,  0,  1000.0,  2,  
  207.00, 1970-01-01T00:03:27Z,  1500.0,  0,  1000.0,  2,  
  208.00, 1970-01-01T00:03:28Z,  1500.0,  0,  1000.0,  2,  
  209.00, 1970-01-01T00:03:29Z,  1500.0,  0,  1000.0,  2,  
  210.00, 1970-01-01T00:03:30Z,  1500.0,  0,  1000.0,  2,  
  211.00, 1970-01-01T00:03:31Z,  1500.0,  0,  1000.0,  2,  
  212.00, 1970-01-01T00:03:32Z,  1500.0,  0,  1000.0,  2,  
  213.00, 1970-01-01T00:03:33Z,  1500.0,  0,  1000.0,  2,  
  214.00, 1970-01-01T00:03:34Z,  1500.0,  0,  1000.0,  2,  
  215.00, 1970-01-01T00:03:35Z,  1500.0,  0,  1000.0,  2,  
  216.00, 1970-01-01T00:03:36Z,  1500.0,  0,  1000.0,  2,  
  217.00, 1970-01-01T00:03:37Z,  1500.0,  0,  1000.0,  2,  
  218.00, 1970-01-01T00:03:38Z,  1500.0,  0,  1000.0,  2,  
  219.00, 1970-01-01T00:03:39Z,  1500.0,  0,  1000.0,  2,  
  220.00, 1970-01-01T00:03:40Z,  1500.0,  0,  1000.0,  2,  
  221.00, 1970-01-01T00:03:41Z,  1500.0,  0,  1000.0,  2,  
  222.00, 1970-01-01T00:03:42Z,  1500.0,  0,  1000.0,  2,  
  223.00, 1970-01-01T00:03:43Z,  1500.0,  0,  1000.0,  2,  
  224.00, 1970-01-01T00:03:44Z,  1500.0,  0,  1000.0,  2,  
  225.00, 1970-01-01T00:03:45Z,  1500.0,  0,  1000.0,  2,  
  226.00, 1970-01-01T00:03:46Z,  1500.0,  0,  1000.0,  2,  
  227.00, 1970-01-01T00:03:47Z,  1500.0,  0,  1000.0,  2,  
  228.00, 1970-01-01T00:03:48Z,  1500.0,  0,  1000.0,  2,  
  229.00, 1970-01-01T00:03:49Z,  1500.0,  0,  1000.0,  2,  
  230.00, 1970-01-01T00:03:50Z,  1500.0,  0,  1000.0,  2,  
  231.00, 1970-01-01T00:03:51Z,  1500.0,  0,  1000.0,  2,  
  232.00, 1970-01-01T00:03:52Z,  1500.0,  0,  1000.0,  2,  
  233.00, 1970-01-01T00:03:53Z,  1500.0,  0,  1000.0,  2,  
  234.00, 1970-01-01T00:03:54Z,  1500.0,  0,  1000.0,  2,  
  235.00, 1970-01-01T00:03:55Z,  1500.0,  0,  1000.0,  2,  
  236.00, 1970-01-01T00:03:56Z,  1500.0,  0,  1000.0,  2,  
  237.00, 1970-01-01T00:03:57Z,  1500.0,  0,  1000.0,  2,  
  238.00, 1970-01-01T00:03:58Z,  1500.0,  0,  1000.0,  2,  
  239.00, 1970-01-01T00:03:59Z,  1500.0,  0,  1000.0,  3,  
  240.00, 1970-01-01T00:04:00Z,  1500.0,  0,  1000.0,  3,  
  241.00, 1970-01-01T00:04:01Z,  1500.0,  2,  1000.0,  0,  
  242.00, 1970-01-01T00:04:02Z,  1500.0,  2,  1000.0,  0,  
  243.00, 1970-01-01T00:04:03Z,  1500.0,  2,  1000.0,  0,  
  244.00, 1970-01-01T00:04:04Z,  1500.0,  2,  1000.0,  0,  
  245.00, 1970-01-01T00:04:05Z,  1500.0,  2,  1000.0,  0,  
  246.00, 1970-01-01T00:04:06Z,  1500.0,  2,  1000.0,  0,  
  247.00, 1970-01-01T00:04:07Z,  1500.0,  2,  1000.0,  0,  
  248.00, 1970-01-01T00:04:08Z,  1500.0,  2,  1000.0,  0,  
  249.00, 1970-01-01T00:04:09Z,  1500.0,  2,  1000.0,  0,  
  250.00, 1970-01-01T00:04:10Z,  1500.0,  2,  1000.0,  0,  
  251.00, 1970-01-01T00:04:11Z,  1500.0,  2,  1000.0,  0,  
  252.00, 1970-01-01T00:04:12Z,  1500.0,  2,  1000.0,  0,  
  253.00, 1970-01-01T00:04:13Z,  1500.0,  2,  1000.0,  0,  
  254.00, 1970-01-01T00:04:14Z,  1500.0,  2,  1000.0,  0,  
  255.00, 1970-01-01T00:04:15Z,  1500.0,  2,  1000.0,  0,  
  256.00, 1970-01-01T00:04:16Z,  1500.0,  2,  1000.0,  0,  
  257.00, 1970-01-01T00:04:17Z,  1500.0,  2,  1000.0,  0,  
  258.00, 1970-01-01T00:04:18Z,  1500.0,  2,  1000.0,  0,  
  259.00, 1970-01-01T00:04:19Z,  1500.0,  2,  1000.0,  0,  
  260.00, 1970-01-01T00:04:20Z,  1500.0,  2,  1000.0,  0,  
  261.00, 1970-01-01T00:04:21Z,  1500.0,  2,  1000.0,  0,  
  262.00, 1970-01-01T00:04:22Z,  1500.0,  2,  1000.0,  0,  
  263.00, 1970-01-01T00:04:23Z,  1500.0,  2,  1000.0,  0,  
  264.00, 1970-01-01T00:04:24Z,  1500.0,  2,  1000.0,  0,  
  265.00, 1970-01-01T00:04:25Z,  1500.0,  2,  1000.0,  0,  
  266.00, 1970-01-01T00:04:26Z,  1500.0,  2,  1000.0,  0,  
  267.00, 1970-01-01T00:04:27Z,  1500.0,  2,  1000.0,  0,  
  268.00, 1970-01-01T00:04:28Z,  1500.0,  2,  1000.0,  0,  
  269.00, 1970-01-01T00:04:29Z,  1500.0,  2,  1000.0,  0,  
  270.00, 1970-01-01T00:04:30Z,  1500.0,  2,  1000.0,  0,  
  271.00, 1970-01-01T00:04:31Z,  1500.0,  2,  1000.0,  0,  
  272.00, 1970-01-01T00:04:32Z,  1500.0,  2,  1000.0,  0,  
