#     t[s],       x[m],     v[m/s],   a[m/s^2]
     40.00,        0.0,    20.5675,     0.0914
     40.00,      100.0,    20.5675,     0.0914
     40.00,      200.0,    20.5675,     0.0914
     40.00,      300.0,    20.5675,     0.0914
     40.00,      400.0,    20.5675,     0.0914
     40.00,      500.0,    23.7272,     0.0390
     40.00,      600.0,    24.9366,     0.0189
     40.00,      700.0,    24.9366,     0.0189
     40.00,      800.0,    24.9366,     0.0189
     40.00,      900.0,    24.9366,     0.0189
     40.00,     1000.0,    24.9366,     0.0189
     40.00,     1100.0,    24.9366,     0.0189
     40.00,     1200.0,    24.9366,     0.0189
     40.00,     1300.0,    24.9366,     0.0189
     40.00,     1400.0,    24.9366,     0.0189
     40.00,     1500.0,    24.9366,     0.0189
     40.00,     1600.0,    24.9366,     0.0189
     40.00,     1700.0,    24.9366,     0.0189
     40.00,     1800.0,    24.9366,     0.0189
     40.00,     1900.0,    24.9366,     0.0189
     40.00,     2000.0,    24.9366,     0.0189
     40.00,     2100.0,    24.9366,     0.0189
     40.00,     2200.0,    24.9366,     0.0189
     40.00,     2300.0,    24.9366,     0.0189
     40.00,     2400.0,    24.9366,     0.0189
     40.00,     2500.0,    24.9366,     0.0189
     40.00,     2600.0,    24.9366,     0.0189
     40.00,     2700.0,    24.9366,     0.0189
     40.00,     2800.0,    24.9366,     0.0189
     40.00,     2900.0,    24.9366,     0.0189
     40.00,     3000.0,    24.9366,     0.0189
     40.00,     3100.0,    24.9366,     0.0189
     40.00,     3200.0,    24.9366,     0.0189
     40.00,     3300.0,    24.9366,     0.0189
     40.00,     3400.0,    24.9366,     0.0189
     40.00,     3500.0,    24.9366,     0.0189
     40.00,     3600.0,    24.9366,     0.0189
     40.00,     3700.0,    24.9366,     0.0189
     40.00,     3800.0,    24.9366,     0.0189
     40.00,     3900.0,    24.9366,     0.0189
     40.00,     4000.0,    24.9366,     0.0189

     80.00,        0.0,    16.8338,    -0.1420
     80.00,      100.0,    16.8338,    -0.1420
     80.00,      200.0,    16.8338,    -0.1420
     80.00,      300.0,    16.8338,    -0.1420
     80.00,      400.0,    16.8338,    -0.1420
     80.00,      500.0,    16.8338,    -0.1420
     80.00,      600.0,    16.6181,    -0.0921
     80.00,      700.0,    16.3836,    -0.0378
     80.00,      800.0,    16.4144,     0.0041
     80.00,      900.0,    17.3575,     0.0032
     80.00,     1000.0,    18.3006,     0.0024
     80.00,     1100.0,    19.2437,     0.0015
     80.00,     1200.0,    20.1869,     0.0007
     80.00,     1300.0,    21.2659,     0.0000
     80.00,     1400.0,    22.9644,     0.0000
     80.00,     1500.0,    24.6628,     0.0000
     80.00,     1600.0,    25.0319,     0.0000
     80.00,     1700.0,    25.0319,     0.0000
     80.00,     1800.0,    25.0319,     0.0000
     80.00,     1900.0,    25.0319,     0.0000
     80.00,     2000.0,    25.0319,     0.0000
     80.00,     2100.0,    25.0319,     0.0000
     80.00,     2200.0,    25.0319,     0.0000
     80.00,     2300.0,    25.0319,     0.0000
     80.00,     2400.0,    25.0319,     0.0000
     80.00,     2500.0,    25.0319,     0.0000
     80.00,     2600.0,    25.0319,     0.0000
     80.00,     2700.0,    25.0319,     0.0000
     80.00,     2800.0,    25.0319,     0.0000
     80.00,     2900.0,    25.0319,     0.0000
     80.00,     3000.0,    25.0319,     0.0000
     80.00,     3100.0,    25.0319,     0.0000
     80.00,     3200.0,    25.0319,     0.0000
     80.00,     3300.0,    25.0319,     0.0000
     80.00,     3400.0,    25.0319,     0.0000
     80.00,     3500.0,    25.0319,     0.0000
     80.00,     3600.0,    25.0319,     0.0000
     80.00,     3700.0,    25.0319,     0.0000
     80.00,     3800.0,    25.0319,     0.0000
     80.00,     3900.0,    25.0319,     0.0000
     80.00,     4000.0,    25.0319,     0.0000

    120.00,        0.0,    19.9696,    -0.0004
    120.00,      100.0,    19.9696,    -0.0004
    120.00,      200.0,    19.9696,    -0.0004
    120.00,      300.0,    19.9696,    -0.0004
    120.00,      400.0,    19.9696,    -0.0004
    120.00,      500.0,    19.9696,    -0.0004
    120.00,      600.0,    19.9696,    -0.0004
    120.00,      700.0,    18.3537,     0.0005
    120.00,      800.0,    16.6751,     0.0015
    120.00,      900.0,    16.0941,     0.0015
    120.00,     1000.0,    16.1917,     0.0009
    120.00,     1100.0,    16.2893,     0.0004
    120.00,     1200.0,    16.3348,     0.0000
    120.00,     1300.0,    16.2884,     0.0000
    120.00,     1400.0,    16.2420,     0.0000
    120.00,     1500.0,    16.7416,     0.0044
    120.00,     1600.0,    17.4379,     0.0105
    120.00,     1700.0,    18.1341,     0.0165
    120.00,     1800.0,    18.8303,     0.0225
    120.00,     1900.0,    19.5266,     0.0285
    120.00,     2000.0,    20.2228,     0.0345
    120.00,     2100.0,    20.9190,     0.0406
    120.00,     2200.0,    20.2375,     0.2386
    120.00,     2300.0,    19.2003,     0.4861
    120.00,     2400.0,    18.1631,     0.7337
    120.00,     2500.0,    17.3102,     0.9373
    120.00,     2600.0,    17.3102,     0.9373
    120.00,     2700.0,    17.3102,     0.9373
    120.00,     2800.0,    17.3102,     0.9373
    120.00,     2900.0,    17.3102,     0.9373
    120.00,     3000.0,    17.3102,     0.9373
    120.00,     3100.0,    17.3102,     0.9373
    120.00,     3200.0,    17.3102,     0.9373
    120.00,     3300.0,    17.3102,     0.9373
    120.00,     3400.0,    17.3102,     0.9373
    120.00,     3500.0,    17.3102,     0.9373
    120.00,     3600.0,    17.3102,     0.9373
    120.00,     3700.0,    17.3102,     0.9373
    120.00,     3800.0,    17.3102,     0.9373
    120.00,     3900.0,    17.3102,     0.9373
    120.00,     4000.0,    17.3102,     0.9373

    160.20,        0.0,    16.0946,    -0.0140
    160.20,      100.0,    16.0946,    -0.0140
    160.20,      200.0,    16.0946,    -0.0140
    160.20,      300.0,    16.0946,    -0.0140
    160.20,      400.0,    16.0946,    -0.0140
    160.20,      500.0,    16.0946,    -0.0140
    160.20,      600.0,    16.0946,    -0.0140
    160.20,      700.0,    17.1089,    -0.0123
    160.20,      800.0,    18.8016,    -0.0094
    160.20,      900.0,    20.4944,    -0.0065
    160.20,     1000.0,    22.1872,    -0.0036
    160.20,     1100.0,    23.8799,    -0.0007
    160.20,     1200.0,    25.5727,     0.0022
    160.20,     1300.0,    22.5047,    -0.2039
    160.20,     1400.0,    19.0497,    -0.4271
    160.20,     1500.0,    16.0611,     0.0000
    160.20,     1600.0,    16.1516,     0.0000
    160.20,     1700.0,    16.2420,     0.0000
    160.20,     1800.0,    16.3325,     0.0000
    160.20,     1900.0,    16.3143,     0.0000
    160.20,     2000.0,    16.2671,     0.0000
    160.20,     2100.0,    16.3424,    -0.0000
    160.20,     2200.0,    16.8765,    -0.0000
    160.20,     2300.0,    17.4106,    -0.0000
    160.20,     2400.0,    17.9446,    -0.0000
    160.20,     2500.0,    18.4787,    -0.0000
    160.20,     2600.0,    19.0128,    -0.0000
    160.20,     2700.0,    19.5468,    -0.0000
    160.20,     2800.0,    20.0809,    -0.0000
    160.20,     2900.0,    20.6150,    -0.0000
    160.20,     3000.0,    21.2640,     0.0001
    160.20,     3100.0,    22.1236,     0.0003
    160.20,     3200.0,    22.9831,     0.0005
    160.20,     3300.0,    23.8427,     0.0007
    160.20,     3400.0,    24.7022,     0.0009
    160.20,     3500.0,    25.0268,     0.0010
    160.20,     3600.0,    25.0268,     0.0010
    160.20,     3700.0,    25.0268,     0.0010
    160.20,     3800.0,    25.0268,     0.0010
    160.20,     3900.0,    25.0268,     0.0010
    160.20,     4000.0,    25.0268,     0.0010

    200.40,        0.0,    20.0454,     0.0143
    200.40,      100.0,    20.0454,     0.0143
    200.40,      200.0,    20.0454,     0.0143
    200.40,      300.0,    20.0454,     0.0143
    200.40,      400.0,    20.0454,     0.0143
    200.40,      500.0,    20.2404,     0.0114
    200.40,      600.0,    20.4620,     0.0081
    200.40,      700.0,    20.6837,     0.0047
    200.40,      800.0,    20.9145,     0.0021
    200.40,      900.0,    21.2026,     0.0034
    200.40,     1000.0,    21.4906,     0.0047
    200.40,     1100.0,    21.7787,     0.0061
    200.40,     1200.0,    22.2068,    -0.0057
    200.40,     1300.0,    16.0511,    -0.0002
    200.40,     1400.0,    16.0564,    -0.0016
    200.40,     1500.0,    16.0617,    -0.0029
    200.40,     1600.0,    16.0671,    -0.0043
    200.40,     1700.0,    16.0724,    -0.0057
    200.40,     1800.0,    16.0777,    -0.0071
    200.40,     1900.0,    16.0830,    -0.0084
    200.40,     2000.0,    16.0883,    -0.0098
    200.40,     2100.0,    16.0462,    -0.0001
    200.40,     2200.0,    14.7954,    -0.3642
    200.40,     2300.0,    13.0532,    -0.8716
    200.40,     2400.0,    11.3110,    -1.3790
    200.40,     2500.0,     3.1827,     0.0639
    200.40,     2600.0,     2.4564,     0.5585
    200.40,     2700.0,     3.9891,     0.5122
    200.40,     2800.0,     5.5218,     0.4659
    200.40,     2900.0,     7.0545,     0.4197
    200.40,     3000.0,     8.5872,     0.3734
    200.40,     3100.0,    10.1199,     0.3272
    200.40,     3200.0,    11.6526,     0.2809
    200.40,     3300.0,    13.1853,     0.2347
    200.40,     3400.0,    14.7180,     0.1884
    200.40,     3500.0,    16.2507,     0.1421
    200.40,     3600.0,    17.7834,     0.0959
    200.40,     3700.0,    19.3161,     0.0496
    200.40,     3800.0,    20.8488,     0.0034
    200.40,     3900.0,    20.9603,    -0.0000
    200.40,     4000.0,    20.9603,    -0.0000

    240.60,        0.0,    22.8304,     0.2531
    240.60,      100.0,    22.8304,     0.2531
    240.60,      200.0,    22.8304,     0.2531
    240.60,      300.0,    22.8304,     0.2531
    240.60,      400.0,    22.8304,     0.2531
    240.60,      500.0,    22.8304,     0.2531
    240.60,      600.0,    20.3583,     0.1633
    240.60,      700.0,    17.7063,     0.0669
    240.60,      800.0,    16.1156,    -0.0010
    240.60,      900.0,    17.0650,    -0.0007
    240.60,     1000.0,    18.0144,    -0.0005
    240.60,     1100.0,    18.9639,    -0.0003
    240.60,     1200.0,    19.9133,    -0.0000
    240.60,     1300.0,    18.5904,    -0.0012
    240.60,     1400.0,    17.4770,    -0.0397
    240.60,     1500.0,    14.0274,     0.2945
    240.60,     1600.0,    16.6046,    -0.0000
    240.60,     1700.0,    17.3090,    -0.0000
    240.60,     1800.0,    16.6290,    -0.0002
    240.60,     1900.0,    16.0524,    -0.0005
    240.60,     2000.0,    16.0506,    -0.0001
    240.60,     2100.0,    16.0510,    -0.0003
    240.60,     2200.0,    16.0513,    -0.0005
    240.60,     2300.0,    16.0517,    -0.0006
    240.60,     2400.0,    16.0521,    -0.0008
    240.60,     2500.0,    16.0525,    -0.0010
    240.60,     2600.0,    16.0529,    -0.0011
    240.60,     2700.0,    16.0523,    -0.0011
    240.60,     2800.0,    16.0322,     0.0087
    240.60,     2900.0,    15.9635,     0.0445
    240.60,     3000.0,    15.9365,     0.0434
    240.60,     3100.0,    15.9365,     0.0434
    240.60,     3200.0,    15.9365,     0.0434
    240.60,     3300.0,    15.9365,     0.0434
    240.60,     3400.0,    15.9365,     0.0434
    240.60,     3500.0,    15.9365,     0.0434
    240.60,     3600.0,    15.9365,     0.0434
    240.60,     3700.0,    15.9365,     0.0434
    240.60,     3800.0,    15.9365,     0.0434
    240.60,     3900.0,    15.9365,     0.0434
    240.60,     4000.0,    15.9365,     0.0434

