# number of lanes = 1. (most inner lane is = 1 and increasing to outer lanes)
# dtSample in seconds = 60.0000 
# logging lanes = true
#      t[s],   nVeh[1], nAccum[1],   V[km/h], flow[1/h],  occup[1],1/<1/v>[km/h],<1/Tbrut>[1/s],
       0.0,          0,          0,      0.000,        0.0,  0.0000000,      0.000,    0.00000, 
      60.0,          8,         16,    103.813,      480.0,  0.0302573,     95.184,    0.13550, 
     120.0,         13,         42,    117.704,      780.0,  0.0399558,    117.129,    0.21151, 
     180.0,         13,         68,    119.986,      780.0,  0.0390045,    119.986,    0.22708, 
     240.0,         13,         94,    114.955,      780.0,  0.0421452,    111.045,    0.21850, 
     300.0,         13,        120,    119.987,      780.0,  0.0390043,    119.987,    0.23113, 
     360.0,         13,        146,    114.955,      780.0,  0.0421452,    111.045,    0.21669, 