# number of lanes = 1. (most inner lane is = 1 and increasing to outer lanes)
# dtSample in seconds = 60.0000 
# logging lanes = true
#      t[s],   nVeh[1], nAccum[1],   V[km/h], flow[1/h],  occup[1],1/<1/v>[km/h],<1/Tbrut>[1/s],
       0.0,          0,          0,      0.000,        0.0,  0.0000000,      0.000,    0.00000, 
      60.0,          3,          6,    118.659,      180.0,  0.0091020,    118.656,    0.06589, 
     120.0,          4,         14,    118.669,      240.0,  0.0121349,    118.666,    0.06611, 
     180.0,          4,         22,    119.051,      240.0,  0.0120960,    119.048,    0.06656, 
     240.0,          4,         30,    118.836,      240.0,  0.0121178,    118.833,    0.06645, 
     300.0,          4,         38,    118.852,      240.0,  0.0121161,    118.850,    0.06642, 
     360.0,          4,         46,    118.540,      240.0,  0.0121480,    118.538,    0.06242, 