# number of lanes = 1. (most inner lane is = 1 and increasing to outer lanes)
# dtSample in seconds = 60.0000 
# logging lanes = true
#      t[s],   nVeh[1], nAccum[1],   V[km/h], flow[1/h],  occup[1],1/<1/v>[km/h],<1/Tbrut>[1/s],
       0.0,          0,          0,      0.000,        0.0,  0.0000000,      0.000,    0.00000, 
      60.0,          0,          0,      0.000,        0.0,  0.0000000,      0.000,    0.00000, 
     120.0,          0,          0,      0.000,        0.0,  0.0000000,      0.000,    0.00000, 
     180.0,          0,          0,      0.000,        0.0,  0.0000000,      0.000,    0.00000, 
     240.0,          0,          0,      0.000,        0.0,  0.0000000,      0.000,    0.00000, 
     300.0,          0,          0,      0.000,        0.0,  0.0000000,      0.000,    0.00000, 
     360.0,          2,          4,     16.200,      120.0,  0.0075000,     16.000,    0.25020, 
     420.0,          4,         12,     18.000,      240.0,  0.0133333,     18.000,    0.09039, 
     480.0,          9,         30,     17.200,      540.0,  0.0316667,     17.053,    0.14455, 
     540.0,         11,         52,     17.018,      660.0,  0.0391667,     16.851,    0.22808, 
     600.0,         15,         82,     16.800,      900.0,  0.0541667,     16.615,    0.30837, 
     660.0,         17,        116,     17.365,     1020.0,  0.0591667,     17.239,    0.33941, 
     720.0,         21,        158,     17.314,     1260.0,  0.0733333,     17.182,    0.43690, 
     780.0,         24,        206,     17.250,     1440.0,  0.0847222,     16.997,    0.46216, 
     840.0,         26,        258,     17.723,     1560.0,  0.0883333,     17.660,    0.49159, 