# vehicle id = 48
# random fix= 0.19614707
# model label  = ACC1
# model category = TIME_CONTINUOUS_MODEL
# model name = Adaptive-Cruise-Control-Model (short name: ACC)
# physical vehicle length (in m) = 8.00
# position x is defined by vehicle front (on the given road segment)
# origin roadsegment id= 1, exit roadsegment id= -1 (not set=-1)
# 
# Route [roadSegments=[RoadSegment [id=1, userId=1, roadName=, roadLength=20000.0, laneCount=1, nodeIds={}]], name=main, length=20000.0]
#     t[s],    roadId,      lane,      x[m], totalX[m],    v[m/s],  a[m/s^2],aModel[m/s^2], gap[m],   dv[m/s],distToTL[m],fuelFlow[ml/s],frontVehID,slope[rad]
      0.00,         1,         1,     210.0,      0.00,     0.000,   0.00000,   0.00000,     2.000,  -0.00000,     -1.00,  0.000000,        22, 0.00000
      1.00,         1,         1,     210.0,      0.00,     0.000,   0.00001,   0.00001,     2.000,  -0.00016,     -1.00,  0.000000,        22, 0.00000
      2.00,         1,         1,     210.0,      0.00,     0.001,   0.00147,   0.00147,     2.003,  -0.00803,     -1.00,  0.000000,        22, 0.00000
      3.00,         1,         1,     210.0,      0.00,     0.010,   0.02002,   0.02002,     2.032,  -0.06287,     -1.00,  0.000000,        22, 0.00000
      4.00,         1,         1,     210.0,      0.04,     0.068,   0.09222,   0.09222,     2.161,  -0.21132,     -1.00,  0.000000,        22, 0.00000
      5.00,         1,         1,     210.2,      0.18,     0.241,   0.23512,   0.23512,     2.485,  -0.44909,     -1.00,  0.000000,        22, 0.00000
      6.00,         1,         1,     210.6,      0.58,     0.587,   0.42217,   0.42217,     3.073,  -0.72803,     -1.00,  0.000000,        22, 0.00000
      7.00,         1,         1,     211.4,      1.42,     1.124,   0.61191,   0.61191,     3.939,  -1.00003,     -1.00,  0.000000,        22, 0.00000
      8.00,         1,         1,     212.9,      2.89,     1.837,   0.77706,   0.77706,     5.061,  -1.23884,     -1.00,  0.000000,        22, 0.00000
      9.00,         1,         1,     215.1,      5.14,     2.696,   0.90866,   0.90866,     6.402,  -1.43613,     -1.00,  0.000000,        22, 0.00000
     10.00,         1,         1,     218.3,      8.32,     3.667,   1.00765,   1.00765,     7.919,  -1.59093,     -1.00,  0.000000,        22, 0.00000
     11.00,         1,         1,     222.5,     12.50,     4.718,   1.07711,   1.07711,     9.570,  -1.70248,     -1.00,  0.000000,        22, 0.00000
     12.00,         1,         1,     227.8,     17.77,     5.822,   1.11866,   1.11866,    11.309,  -1.76787,     -1.00,  0.000000,        22, 0.00000
     13.00,         1,         1,     234.2,     24.16,     6.951,   1.13193,   1.13193,    13.088,  -1.78291,     -1.00,  0.000000,        22, 0.00000
     14.00,         1,         1,     241.7,     31.67,     8.076,   1.11563,   1.11563,    14.856,  -1.74482,     -1.00,  0.000000,        22, 0.00000
     15.00,         1,         1,     250.3,     40.30,     9.166,   1.06946,   1.06946,    16.560,  -1.65485,     -1.00,  0.000000,        22, 0.00000
     16.00,         1,         1,     260.0,     49.98,    10.193,   0.99556,   0.99556,    18.151,  -1.51949,     -1.00,  0.000000,        22, 0.00000
     17.00,         1,         1,     270.7,     60.65,    11.132,   0.89895,   0.89895,    19.587,  -1.34967,     -1.00,  0.000000,        22, 0.00000
     18.00,         1,         1,     282.2,     72.21,    11.965,   0.78674,   0.78674,    20.843,  -1.15864,     -1.00,  0.000000,        22, 0.00000
     19.00,         1,         1,     294.5,     84.54,    12.680,   0.66678,   0.66678,    21.902,  -0.95983,     -1.00,  0.000000,        22, 0.00000
     20.00,         1,         1,     307.5,     97.53,    13.274,   0.54642,   0.54642,    22.764,  -0.76552,     -1.00,  0.000000,        22, 0.00000
     21.00,         1,         1,     321.1,    111.05,    13.751,   0.43196,   0.43196,    23.438,  -0.58629,     -1.00,  0.000000,        22, 0.00000
     22.00,         1,         1,     335.0,    125.00,    14.120,   0.32846,   0.32846,    23.944,  -0.43075,     -1.00,  0.000000,        22, 0.00000
     23.00,         1,         1,     349.3,    139.26,    14.394,   0.23987,   0.23987,    24.310,  -0.30463,     -1.00,  0.000000,        22, 0.00000
     24.00,         1,         1,     363.8,    153.76,    14.590,   0.16874,   0.16874,    24.564,  -0.20931,     -1.00,  0.000000,        22, 0.00000
     25.00,         1,         1,     378.4,    168.42,    14.725,   0.11546,   0.11546,    24.738,  -0.14134,     -1.00,  0.000000,        22, 0.00000
     26.00,         1,         1,     393.2,    183.19,    14.817,   0.07779,   0.07779,    24.854,  -0.09458,     -1.00,  0.000000,        22, 0.00000
     27.00,         1,         1,     408.0,    198.04,    14.879,   0.05200,   0.05200,    24.932,  -0.06296,     -1.00,  0.000000,        22, 0.00000
     28.00,         1,         1,     422.9,    212.94,    14.920,   0.03459,   0.03459,    24.984,  -0.04177,     -1.00,  0.000000,        22, 0.00000
     29.00,         1,         1,     437.9,    227.88,    14.947,   0.02294,   0.02294,    25.018,  -0.02765,     -1.00,  0.000000,        22, 0.00000
     30.00,         1,         1,     452.8,    242.83,    14.965,   0.01518,   0.01518,    25.041,  -0.01828,     -1.00,  0.000000,        22, 0.00000
     31.00,         1,         1,     467.8,    257.81,    14.977,   0.01003,   0.01003,    25.056,  -0.01207,     -1.00,  0.000000,        22, 0.00000
     32.00,         1,         1,     482.8,    272.79,    14.985,   0.00662,   0.00662,    25.065,  -0.00797,     -1.00,  0.000000,        22, 0.00000
     33.00,         1,         1,     497.8,    287.77,    14.990,   0.00437,   0.00437,    25.072,  -0.00525,     -1.00,  0.000000,        22, 0.00000
     34.00,         1,         1,     512.8,    302.77,    14.993,   0.00288,   0.00288,    25.076,  -0.00346,     -1.00,  0.000000,        22, 0.00000
     35.00,         1,         1,     527.8,    317.76,    14.996,   0.00190,   0.00190,    25.079,  -0.00228,     -1.00,  0.000000,        22, 0.00000
     36.00,         1,         1,     542.8,    332.76,    14.997,   0.00125,   0.00125,    25.081,  -0.00151,     -1.00,  0.000000,        22, 0.00000
     37.00,         1,         1,     557.8,    347.75,    14.998,   0.00083,   0.00083,    25.082,  -0.00099,     -1.00,  0.000000,        22, 0.00000
     38.00,         1,         1,     572.8,    362.75,    14.999,   0.00054,   0.00054,    25.083,  -0.00065,     -1.00,  0.000000,        22, 0.00000
     39.00,         1,         1,     587.8,    377.75,    14.999,   0.00036,   0.00036,    25.084,  -0.00043,     -1.00,  0.000000,        22, 0.00000
     40.00,         1,         1,     602.8,    392.75,    14.999,   0.00024,   0.00024,    25.084,  -0.00028,     -1.00,  0.000000,        22, 0.00000
     41.00,         1,         1,     617.8,    407.75,    15.000,   0.00016,   0.00016,    25.084,  -0.00019,     -1.00,  0.000000,        22, 0.00000
     42.00,         1,         1,     632.8,    422.75,    15.000,   0.00010,   0.00010,    25.084,  -0.00012,     -1.00,  0.000000,        22, 0.00000
     43.00,         1,         1,     647.8,    437.75,    15.000,   0.00007,   0.00007,    25.084,  -0.00008,     -1.00,  0.000000,        22, 0.00000
     44.00,         1,         1,     662.8,    452.75,    15.000,   0.00004,   0.00004,    25.084,  -0.00005,     -1.00,  0.000000,        22, 0.00000
     45.00,         1,         1,     677.8,    467.75,    15.000,   0.00003,   0.00003,    25.084,  -0.00004,     -1.00,  0.000000,        22, 0.00000
     46.00,         1,         1,     692.8,    482.75,    15.000,   0.00002,   0.00002,    25.084,  -0.00002,     -1.00,  0.000000,        22, 0.00000
     47.00,         1,         1,     707.8,    497.75,    15.000,   0.00001,   0.00001,    25.085,  -0.00002,     -1.00,  0.000000,        22, 0.00000
     48.00,         1,         1,     722.8,    512.75,    15.000,   0.00001,   0.00001,    25.085,  -0.00001,     -1.00,  0.000000,        22, 0.00000
     49.00,         1,         1,     737.8,    527.75,    15.000,   0.00001,   0.00001,    25.085,  -0.00001,     -1.00,  0.000000,        22, 0.00000
     50.00,         1,         1,     752.8,    542.75,    15.000,   0.00000,   0.00000,    25.085,  -0.00000,     -1.00,  0.000000,        22, 0.00000
     51.00,         1,         1,     767.8,    557.75,    15.000,   0.00000,   0.00000,    25.085,  -0.00000,     -1.00,  0.000000,        22, 0.00000
     52.00,         1,         1,     782.8,    572.75,    15.000,   0.00000,   0.00000,    25.085,  -0.00000,     -1.00,  0.000000,        22, 0.00000
     53.00,         1,         1,     797.8,    587.75,    15.000,   0.00000,   0.00000,    25.085,  -0.00000,     -1.00,  0.000000,        22, 0.00000
     54.00,         1,         1,     812.8,    602.75,    15.000,   0.00000,   0.00000,    25.085,  -0.00000,     -1.00,  0.000000,        22, 0.00000
     55.00,         1,         1,     827.8,    617.75,    15.000,   0.00000,   0.00000,    25.085,  -0.00000,     -1.00,  0.000000,        22, 0.00000
     56.00,         1,         1,     842.8,    632.75,    15.000,   0.00000,   0.00000,    25.082,   0.02516,     -1.00,  0.000000,        22, 0.00000
     57.00,         1,         1,     857.8,    647.75,    15.000,   0.00000,   0.00000,    24.757,   0.78832,     -1.00,  0.000000,        22, 0.00000
     58.00,         1,         1,     872.7,    662.66,    14.679,  -0.71711,  -0.71711,    23.314,   2.03889,     -1.00,  0.000000,        22, 0.00000
     59.00,         1,         1,     886.8,    676.78,    13.433,  -1.53479,  -1.53479,    20.894,   2.70178,     -1.00,  0.000000,        22, 0.00000
     60.00,         1,         1,     899.4,    689.35,    11.663,  -1.87034,  -1.87034,    18.076,   2.88017,     -1.00,  0.000000,        22, 0.00000
     61.00,         1,         1,     910.1,    700.06,     9.754,  -1.90982,  -1.90982,    15.210,   2.82939,     -1.00,  0.000000,        22, 0.00000
     62.00,         1,         1,     918.9,    708.88,     7.888,  -1.82693,  -1.82693,    12.453,   2.67195,     -1.00,  0.000000,        22, 0.00000
     63.00,         1,         1,     925.9,    715.88,     6.140,  -1.69013,  -1.69013,     9.889,   2.44370,     -1.00,  0.000000,        22, 0.00000
     64.00,         1,         1,     931.2,    721.21,     4.551,  -1.51813,  -1.51813,     7.588,   2.14906,     -1.00,  0.000000,        22, 0.00000
     65.00,         1,         1,     935.0,    725.05,     3.153,  -1.31285,  -1.31285,     5.615,   1.78454,     -1.00,  0.000000,        22, 0.00000
     66.00,         1,         1,     937.6,    727.59,     1.982,  -1.07243,  -1.07243,     4.042,   1.35178,     -1.00,  0.000000,        22, 0.00000
     67.00,         1,         1,     939.1,    729.10,     1.071,  -0.79793,  -0.79793,     2.927,   0.87461,     -1.00,  0.000000,        22, 0.00000
     68.00,         1,         1,     939.8,    729.84,     0.451,  -0.50161,  -0.50161,     2.283,   0.42838,     -1.00,  0.000000,        22, 0.00000
     69.00,         1,         1,     940.1,    730.10,     0.117,  -0.22838,  -0.22838,     2.024,   0.11713,     -1.00,  0.000000,        22, 0.00000
     70.00,         1,         1,     940.1,    730.15,     0.002,  -0.05740,  -0.05740,     1.977,   0.00220,     -1.00,  0.000000,        22, 0.00000
     71.00,         1,         1,     940.1,    730.15,     0.000,   0.00000,  -0.03462,     1.977,   0.00000,     -1.00,  0.000000,        22, 0.00000
     72.00,         1,         1,     940.1,    730.15,     0.000,   0.00000,  -0.03462,     1.977,   0.00000,     -1.00,  0.000000,        22, 0.00000
     73.00,         1,         1,     940.1,    730.15,     0.000,   0.00000,  -0.03462,     1.977,   0.00000,     -1.00,  0.000000,        22, 0.00000
     74.00,         1,         1,     940.1,    730.15,     0.000,   0.00000,  -0.03462,     1.977,   0.00000,     -1.00,  0.000000,        22, 0.00000
     75.00,         1,         1,     940.1,    730.15,     0.000,   0.00000,  -0.03462,     1.977,   0.00000,     -1.00,  0.000000,        22, 0.00000
     76.00,         1,         1,     940.1,    730.15,     0.000,   0.00000,  -0.03462,     1.977,   0.00000,     -1.00,  0.000000,        22, 0.00000
     77.00,         1,         1,     940.1,    730.15,     0.000,   0.00000,  -0.03462,     1.977,   0.00000,     -1.00,  0.000000,        22, 0.00000
     78.00,         1,         1,     940.1,    730.15,     0.000,   0.00000,  -0.03462,     1.977,   0.00000,     -1.00,  0.000000,        22, 0.00000
     79.00,         1,         1,     940.1,    730.15,     0.000,   0.00000,  -0.03462,     1.977,   0.00000,     -1.00,  0.000000,        22, 0.00000
     80.00,         1,         1,     940.1,    730.15,     0.000,   0.00000,  -0.03462,     1.977,   0.00000,     -1.00,  0.000000,        22, 0.00000
     81.00,         1,         1,     940.1,    730.15,     0.000,   0.00000,  -0.03462,     1.977,   0.00000,     -1.00,  0.000000,        22, 0.00000
     82.00,         1,         1,     940.1,    730.15,     0.000,   0.00000,  -0.03462,     1.977,   0.00000,     -1.00,  0.000000,        22, 0.00000
     83.00,         1,         1,     940.1,    730.15,     0.000,   0.00000,  -0.03462,     1.977,   0.00000,     -1.00,  0.000000,        22, 0.00000
     84.00,         1,         1,     940.1,    730.15,     0.000,   0.00000,  -0.03462,     1.977,   0.00000,     -1.00,  0.000000,        22, 0.00000
     85.00,         1,         1,     940.1,    730.15,     0.000,   0.00000,  -0.03462,     1.977,   0.00000,     -1.00,  0.000000,        22, 0.00000
     86.00,         1,         1,     940.1,    730.15,     0.000,   0.00000,  -0.03462,     1.977,   0.00000,     -1.00,  0.000000,        22, 0.00000
     87.00,         1,         1,     940.1,    730.15,     0.000,   0.00000,  -0.03462,     1.977,   0.00000,     -1.00,  0.000000,        22, 0.00000
     88.00,         1,         1,     940.1,    730.15,     0.000,   0.00000,  -0.03462,     1.977,   0.00000,     -1.00,  0.000000,        22, 0.00000
     89.00,         1,         1,     940.1,    730.15,     0.000,   0.00000,  -0.03462,     1.977,   0.00000,     -1.00,  0.000000,        22, 0.00000
     90.00,         1,         1,     940.1,    730.15,     0.000,   0.00000,  -0.03462,     1.977,   0.00000,     -1.00,  0.000000,        22, 0.00000
     91.00,         1,         1,     940.1,    730.15,     0.000,   0.00000,  -0.03462,     1.977,   0.00000,     -1.00,  0.000000,        22, 0.00000
     92.00,         1,         1,     940.1,    730.15,     0.000,   0.00000,  -0.03462,     1.977,   0.00000,     -1.00,  0.000000,        22, 0.00000
     93.00,         1,         1,     940.1,    730.15,     0.000,   0.00000,  -0.03462,     1.977,   0.00000,     -1.00,  0.000000,        22, 0.00000
     94.00,         1,         1,     940.1,    730.15,     0.000,   0.00000,  -0.03462,     1.977,   0.00000,     -1.00,  0.000000,        22, 0.00000
     95.00,         1,         1,     940.1,    730.15,     0.000,   0.00000,  -0.03462,     1.977,   0.00000,     -1.00,  0.000000,        22, 0.00000
     96.00,         1,         1,     940.1,    730.15,     0.000,   0.00000,  -0.03462,     1.977,   0.00000,     -1.00,  0.000000,        22, 0.00000
     97.00,         1,         1,     940.1,    730.15,     0.000,   0.00000,  -0.03462,     1.977,   0.00000,     -1.00,  0.000000,        22, 0.00000
     98.00,         1,         1,     940.1,    730.15,     0.000,   0.00000,  -0.03462,     1.977,   0.00000,     -1.00,  0.000000,        22, 0.00000
     99.00,         1,         1,     940.1,    730.15,     0.000,   0.00000,  -0.03462,     1.977,   0.00000,     -1.00,  0.000000,        22, 0.00000
    100.00,         1,         1,     940.1,    730.15,     0.000,   0.00000,  -0.03462,     1.977,   0.00000,     -1.00,  0.000000,        22, 0.00000
    101.00,         1,         1,     940.1,    730.15,     0.000,   0.00000,  -0.03462,     1.977,   0.00000,     -1.00,  0.000000,        22, 0.00000
    102.00,         1,         1,     940.1,    730.15,     0.000,   0.00000,  -0.03462,     1.977,   0.00000,     -1.00,  0.000000,        22, 0.00000
    103.00,         1,         1,     940.1,    730.15,     0.000,   0.00000,  -0.03462,     1.977,   0.00000,     -1.00,  0.000000,        22, 0.00000
    104.00,         1,         1,     940.1,    730.15,     0.000,   0.00000,  -0.03462,     1.977,   0.00000,     -1.00,  0.000000,        22, 0.00000
    105.00,         1,         1,     940.1,    730.15,     0.000,   0.00000,  -0.03462,     1.977,   0.00000,     -1.00,  0.000000,        22, 0.00000
    106.00,         1,         1,     940.1,    730.15,     0.000,   0.00000,  -0.03462,     1.977,   0.00000,     -1.00,  0.000000,        22, 0.00000
    107.00,         1,         1,     940.1,    730.15,     0.000,   0.00000,  -0.03462,     1.977,   0.00000,     -1.00,  0.000000,        22, 0.00000
    108.00,         1,         1,     940.1,    730.15,     0.000,   0.00000,  -0.03462,     1.977,   0.00000,     -1.00,  0.000000,        22, 0.00000
    109.00,         1,         1,     940.1,    730.15,     0.000,   0.00000,  -0.03462,     1.977,   0.00000,     -1.00,  0.000000,        22, 0.00000
    110.00,         1,         1,     940.1,    730.15,     0.000,   0.00000,  -0.03462,     1.977,   0.00000,     -1.00,  0.000000,        22, 0.00000
    111.00,         1,         1,     940.1,    730.15,     0.000,   0.00000,  -0.03462,     1.977,   0.00000,     -1.00,  0.000000,        22, 0.00000
    112.00,         1,         1,     940.1,    730.15,     0.000,   0.00000,  -0.03462,     1.977,   0.00000,     -1.00,  0.000000,        22, 0.00000
    113.00,         1,         1,     940.1,    730.15,     0.000,   0.00000,  -0.03462,     1.977,   0.00000,     -1.00,  0.000000,        22, 0.00000
    114.00,         1,         1,     940.1,    730.15,     0.000,   0.00000,  -0.03462,     1.977,   0.00000,     -1.00,  0.000000,        22, 0.00000
    115.00,         1,         1,     940.1,    730.15,     0.000,   0.00000,  -0.03462,     1.977,   0.00000,     -1.00,  0.000000,        22, 0.00000
    116.00,         1,         1,     940.1,    730.15,     0.000,   0.00000,  -0.03462,     1.977,   0.00000,     -1.00,  0.000000,        22, 0.00000
    117.00,         1,         1,     940.1,    730.15,     0.000,   0.00000,  -0.03462,     1.977,   0.00000,     -1.00,  0.000000,        22, 0.00000
    118.00,         1,         1,     940.1,    730.15,     0.000,   0.00000,  -0.03462,     1.977,   0.00000,     -1.00,  0.000000,        22, 0.00000
    119.00,         1,         1,     940.1,    730.15,     0.000,   0.00000,  -0.03462,     1.977,   0.00000,     -1.00,  0.000000,        22, 0.00000
    120.00,         1,         1,     940.1,    730.15,     0.000,   0.00000,  -0.03462,     1.977,   0.00000,     -1.00,  0.000000,        22, 0.00000
